[ERROR] 2020-07-16 12:00:50,900 | /home/frappe/frappe-bench/apps/frappe/frappe/app.py:
Site: site1.local
Form Dict: {
 "action": "Save",
 "cmd": "frappe.desk.form.save.savedocs",
 "doc": "{\"name\":\"Material Check Point\",\"creation\":\"2020-07-16 15:54:13.295068\",\"modified\":\"2020-07-16 17:25:42.496546\",\"modified_by\":\"works@f9tech.com\",\"owner\":\"works@f9tech.com\",\"docstatus\":0,\"idx\":0,\"issingle\":0,\"is_tree\":0,\"istable\":0,\"editable_grid\":1,\"track_changes\":1,\"module\":\"Stock\",\"autoname\":\"naming_series:\",\"name_case\":\"\",\"sort_field\":\"modified\",\"sort_order\":\"DESC\",\"read_only\":0,\"in_create\":0,\"allow_copy\":0,\"allow_rename\":0,\"allow_import\":0,\"hide_toolbar\":0,\"track_seen\":0,\"max_attachments\":0,\"document_type\":\"Document\",\"engine\":\"InnoDB\",\"is_submittable\":0,\"show_name_in_global_search\":0,\"custom\":1,\"beta\":0,\"has_web_view\":0,\"allow_guest_to_view\":0,\"track_views\":0,\"allow_auto_repeat\":0,\"allow_events_in_timeline\":0,\"quick_entry\":1,\"show_preview_popup\":0,\"doctype\":\"DocType\",\"fields\":[{\"name\":\"689261b01c\",\"creation\":\"2020-07-16 15:54:13.295068\",\"modified\":\"2020-07-16 17:25:42.496546\",\"modified_by\":\"works@f9tech.com\",\"owner\":\"works@f9tech.com\",\"docstatus\":0,\"parent\":\"Material Check Point\",\"parentfield\":\"fields\",\"parenttype\":\"DocType\",\"idx\":1,\"fieldname\":\"material_checking_point\",\"label\":\"Material checking point\",\"fieldtype\":\"Data\",\"search_index\":0,\"hidden\":0,\"set_only_once\":0,\"allow_in_quick_entry\":0,\"print_hide\":0,\"report_hide\":0,\"reqd\":0,\"bold\":0,\"in_global_search\":0,\"collapsible\":0,\"unique\":0,\"no_copy\":0,\"allow_on_submit\":0,\"show_preview_popup\":0,\"permlevel\":0,\"ignore_user_permissions\":0,\"columns\":0,\"in_list_view\":0,\"fetch_if_empty\":0,\"in_filter\":0,\"remember_last_selected_value\":0,\"ignore_xss_filter\":0,\"print_hide_if_no_value\":0,\"allow_bulk_edit\":0,\"in_standard_filter\":0,\"in_preview\":0,\"read_only\":0,\"precision\":\"\",\"length\":0,\"translatable\":0,\"doctype\":\"DocField\"},{\"name\":\"7ba81f8d98\",\"creation\":\"2020-07-16 15:54:13.295068\",\"modified\":\"2020-07-16 17:25:42.496546\",\"modified_by\":\"works@f9tech.com\",\"owner\":\"works@f9tech.com\",\"docstatus\":0,\"parent\":\"Material Check Point\",\"parentfield\":\"fields\",\"parenttype\":\"DocType\",\"idx\":2,\"fieldname\":\"transportation_type\",\"label\":\"Trasportation Type\",\"fieldtype\":\"Select\",\"options\":\"\\nLocal\\nOutstation\",\"search_index\":0,\"hidden\":0,\"set_only_once\":0,\"allow_in_quick_entry\":0,\"print_hide\":0,\"report_hide\":0,\"reqd\":0,\"bold\":0,\"in_global_search\":0,\"collapsible\":0,\"unique\":0,\"no_copy\":0,\"allow_on_submit\":0,\"show_preview_popup\":0,\"permlevel\":0,\"ignore_user_permissions\":0,\"columns\":0,\"in_list_view\":0,\"fetch_if_empty\":0,\"in_filter\":0,\"remember_last_selected_value\":0,\"ignore_xss_filter\":0,\"print_hide_if_no_value\":0,\"allow_bulk_edit\":0,\"in_standard_filter\":0,\"in_preview\":0,\"read_only\":0,\"precision\":\"\",\"length\":0,\"translatable\":0,\"doctype\":\"DocField\"},{\"name\":\"66f2b5c660\",\"creation\":\"2020-07-16 15:54:13.295068\",\"modified\":\"2020-07-16 17:25:42.496546\",\"modified_by\":\"works@f9tech.com\",\"owner\":\"works@f9tech.com\",\"docstatus\":0,\"parent\":\"Material Check Point\",\"parentfield\":\"fields\",\"parenttype\":\"DocType\",\"idx\":3,\"fieldname\":\"naming_series\",\"label\":\"Purchase order Number\",\"fieldtype\":\"Link\",\"options\":\"Purchase Order\",\"search_index\":0,\"hidden\":0,\"set_only_once\":0,\"allow_in_quick_entry\":0,\"print_hide\":0,\"report_hide\":0,\"reqd\":0,\"bold\":0,\"in_global_search\":0,\"collapsible\":0,\"unique\":0,\"no_copy\":0,\"allow_on_submit\":0,\"show_preview_popup\":0,\"permlevel\":0,\"ignore_user_permissions\":0,\"columns\":0,\"in_list_view\":0,\"fetch_if_empty\":0,\"in_filter\":0,\"remember_last_selected_value\":0,\"ignore_xss_filter\":0,\"print_hide_if_no_value\":0,\"allow_bulk_edit\":0,\"in_standard_filter\":0,\"in_preview\":0,\"read_only\":0,\"precision\":\"\",\"length\":0,\"translatable\":0,\"doctype\":\"DocField\",\"depends_on\":\"eval:doc.transportation_type=='Local'\"},{\"name\":\"f04d32c016\",\"creation\":\"2020-07-16 15:54:13.295068\",\"modified\":\"2020-07-16 17:25:42.496546\",\"modified_by\":\"works@f9tech.com\",\"owner\":\"works@f9tech.com\",\"docstatus\":0,\"parent\":\"Material Check Point\",\"parentfield\":\"fields\",\"parenttype\":\"DocType\",\"idx\":4,\"fieldname\":\"lr_number\",\"label\":\"LR Number\",\"fieldtype\":\"Data\",\"search_index\":0,\"hidden\":0,\"set_only_once\":0,\"allow_in_quick_entry\":0,\"print_hide\":0,\"report_hide\":0,\"reqd\":0,\"bold\":0,\"in_global_search\":0,\"collapsible\":0,\"unique\":0,\"no_copy\":0,\"allow_on_submit\":0,\"show_preview_popup\":0,\"permlevel\":0,\"ignore_user_permissions\":0,\"columns\":0,\"in_list_view\":0,\"fetch_if_empty\":0,\"in_filter\":0,\"remember_last_selected_value\":0,\"ignore_xss_filter\":0,\"print_hide_if_no_value\":0,\"allow_bulk_edit\":0,\"in_standard_filter\":0,\"in_preview\":0,\"read_only\":0,\"precision\":\"\",\"length\":0,\"translatable\":0,\"fetch_from\":\"\",\"doctype\":\"DocField\",\"depends_on\":\"\"},{\"docstatus\":0,\"doctype\":\"DocField\",\"name\":\"82c83b2873\",\"owner\":\"works@f9tech.com\",\"fieldtype\":\"Data\",\"precision\":\"\",\"translatable\":0,\"permlevel\":0,\"parent\":\"Material Check Point\",\"parentfield\":\"fields\",\"parenttype\":\"DocType\",\"idx\":5,\"label\":\"Supplier Name\",\"fieldname\":\"supplier_name\",\"fetch_from\":\"naming_series.supplier_name\",\"creation\":\"2020-07-16 15:54:13.295068\",\"modified\":\"2020-07-16 17:25:42.496546\",\"modified_by\":\"works@f9tech.com\",\"search_index\":0,\"hidden\":0,\"set_only_once\":0,\"allow_in_quick_entry\":0,\"print_hide\":0,\"report_hide\":0,\"reqd\":0,\"bold\":0,\"in_global_search\":0,\"collapsible\":0,\"unique\":0,\"no_copy\":0,\"allow_on_submit\":0,\"ignore_user_permissions\":0,\"columns\":0,\"in_list_view\":0,\"fetch_if_empty\":0,\"in_filter\":0,\"remember_last_selected_value\":0,\"ignore_xss_filter\":0,\"print_hide_if_no_value\":0,\"allow_bulk_edit\":0,\"in_standard_filter\":0,\"in_preview\":0,\"read_only\":0,\"length\":0},{\"docstatus\":0,\"doctype\":\"DocField\",\"name\":\"New DocField 4\",\"__islocal\":1,\"__unsaved\":1,\"owner\":\"works@f9tech.com\",\"fieldtype\":\"Data\",\"precision\":\"\",\"translatable\":0,\"permlevel\":0,\"parent\":\"Material Check Point\",\"parentfield\":\"fields\",\"parenttype\":\"DocType\",\"idx\":6,\"__unedited\":false,\"label\":\"Invoice Number\",\"fieldname\":\"invoice_number\"},{\"docstatus\":0,\"doctype\":\"DocField\",\"name\":\"New DocField 5\",\"__islocal\":1,\"__unsaved\":1,\"owner\":\"works@f9tech.com\",\"fieldtype\":\"Float\",\"precision\":\"\",\"translatable\":0,\"permlevel\":0,\"parent\":\"Material Check Point\",\"parentfield\":\"fields\",\"parenttype\":\"DocType\",\"idx\":7,\"__unedited\":false,\"label\":\"No.of Qty\",\"fieldname\":\"qty\",\"fetch_from\":\"naming_series.qty\"}],\"permissions\":[{\"name\":\"f58174ea38\",\"creation\":\"2020-07-16 15:54:13.295068\",\"modified\":\"2020-07-16 17:25:42.496546\",\"modified_by\":\"works@f9tech.com\",\"owner\":\"works@f9tech.com\",\"docstatus\":0,\"parent\":\"Material Check Point\",\"parentfield\":\"permissions\",\"parenttype\":\"DocType\",\"idx\":1,\"permlevel\":0,\"role\":\"System Manager\",\"read\":1,\"write\":1,\"create\":1,\"submit\":0,\"cancel\":0,\"delete\":1,\"amend\":0,\"report\":1,\"export\":1,\"import\":0,\"share\":1,\"print\":1,\"email\":1,\"if_owner\":0,\"set_user_permissions\":0,\"doctype\":\"DocPerm\"}],\"__unsaved\":1}"
}
Request Error
Traceback (most recent call last):
  File "/home/frappe/frappe-bench/apps/frappe/frappe/app.py", line 60, in application
    response = frappe.api.handle()
  File "/home/frappe/frappe-bench/apps/frappe/frappe/api.py", line 55, in handle
    return frappe.handler.handle()
  File "/home/frappe/frappe-bench/apps/frappe/frappe/handler.py", line 22, in handle
    data = execute_cmd(cmd)
  File "/home/frappe/frappe-bench/apps/frappe/frappe/handler.py", line 61, in execute_cmd
    return frappe.call(method, **frappe.form_dict)
  File "/home/frappe/frappe-bench/apps/frappe/frappe/__init__.py", line 1051, in call
    return fn(*args, **newargs)
  File "/home/frappe/frappe-bench/apps/frappe/frappe/desk/form/save.py", line 22, in savedocs
    doc.save()
  File "/home/frappe/frappe-bench/apps/frappe/frappe/model/document.py", line 273, in save
    return self._save(*args, **kwargs)
  File "/home/frappe/frappe-bench/apps/frappe/frappe/model/document.py", line 326, in _save
    self.run_post_save_methods()
  File "/home/frappe/frappe-bench/apps/frappe/frappe/model/document.py", line 926, in run_post_save_methods
    self.run_method("on_update")
  File "/home/frappe/frappe-bench/apps/frappe/frappe/model/document.py", line 794, in run_method
    out = Document.hook(fn)(self, *args, **kwargs)
  File "/home/frappe/frappe-bench/apps/frappe/frappe/model/document.py", line 1065, in composer
    return composed(self, method, *args, **kwargs)
  File "/home/frappe/frappe-bench/apps/frappe/frappe/model/document.py", line 1048, in runner
    add_to_return_value(self, fn(self, *args, **kwargs))
  File "/home/frappe/frappe-bench/apps/frappe/frappe/model/document.py", line 788, in <lambda>
    fn = lambda self, *args, **kwargs: getattr(self, method)(*args, **kwargs)
  File "/home/frappe/frappe-bench/apps/frappe/frappe/core/doctype/doctype/doctype.py", line 286, in on_update
    self.update_fields_to_fetch()
  File "/home/frappe/frappe-bench/apps/frappe/frappe/core/doctype/doctype/doctype.py", line 176, in update_fields_to_fetch
    frappe.db.sql(query)
  File "/home/frappe/frappe-bench/apps/frappe/frappe/database/database.py", line 171, in sql
    self._cursor.execute(query)
  File "/home/frappe/frappe-bench/env/lib/python3.6/site-packages/pymysql/cursors.py", line 170, in execute
    result = self._query(query)
  File "/home/frappe/frappe-bench/env/lib/python3.6/site-packages/pymysql/cursors.py", line 328, in _query
    conn.query(q)
  File "/home/frappe/frappe-bench/env/lib/python3.6/site-packages/pymysql/connections.py", line 517, in query
    self._affected_rows = self._read_query_result(unbuffered=unbuffered)
  File "/home/frappe/frappe-bench/env/lib/python3.6/site-packages/pymysql/connections.py", line 732, in _read_query_result
    result.read()
  File "/home/frappe/frappe-bench/env/lib/python3.6/site-packages/pymysql/connections.py", line 1075, in read
    first_packet = self.connection._read_packet()
  File "/home/frappe/frappe-bench/env/lib/python3.6/site-packages/pymysql/connections.py", line 684, in _read_packet
    packet.check_error()
  File "/home/frappe/frappe-bench/env/lib/python3.6/site-packages/pymysql/protocol.py", line 220, in check_error
    err.raise_mysql_exception(self._data)
  File "/home/frappe/frappe-bench/env/lib/python3.6/site-packages/pymysql/err.py", line 109, in raise_mysql_exception
    raise errorclass(errno, errval)
pymysql.err.InternalError: (1054, "Unknown column 'source.qty' in 'field list'")
[ERROR] 2020-07-17 07:33:58,444 | /home/frappe/frappe-bench/apps/frappe/frappe/app.py:
Site: site1.local
Form Dict: {
 "action": "Save",
 "cmd": "frappe.desk.form.save.savedocs",
 "doc": "{\"name\":\"Material Check Point\",\"creation\":\"2020-07-16 15:54:13.295068\",\"modified\":\"2020-07-17 12:58:45.524548\",\"modified_by\":\"works@f9tech.com\",\"owner\":\"works@f9tech.com\",\"docstatus\":0,\"idx\":0,\"issingle\":0,\"is_tree\":0,\"istable\":0,\"editable_grid\":1,\"track_changes\":1,\"module\":\"Stock\",\"autoname\":\"naming_series:\",\"name_case\":\"\",\"sort_field\":\"modified\",\"sort_order\":\"DESC\",\"read_only\":0,\"in_create\":0,\"allow_copy\":0,\"allow_rename\":0,\"allow_import\":0,\"hide_toolbar\":0,\"track_seen\":0,\"max_attachments\":0,\"document_type\":\"Document\",\"engine\":\"InnoDB\",\"is_submittable\":0,\"show_name_in_global_search\":0,\"custom\":1,\"beta\":0,\"has_web_view\":0,\"allow_guest_to_view\":0,\"track_views\":0,\"allow_auto_repeat\":0,\"allow_events_in_timeline\":0,\"quick_entry\":1,\"show_preview_popup\":0,\"doctype\":\"DocType\",\"fields\":[{\"name\":\"689261b01c\",\"creation\":\"2020-07-16 15:54:13.295068\",\"modified\":\"2020-07-17 12:58:45.524548\",\"modified_by\":\"works@f9tech.com\",\"owner\":\"works@f9tech.com\",\"docstatus\":0,\"parent\":\"Material Check Point\",\"parentfield\":\"fields\",\"parenttype\":\"DocType\",\"idx\":1,\"fieldname\":\"material_checking_point\",\"label\":\"Material checking point\",\"fieldtype\":\"Data\",\"search_index\":0,\"hidden\":0,\"set_only_once\":0,\"allow_in_quick_entry\":0,\"print_hide\":0,\"report_hide\":0,\"reqd\":0,\"bold\":0,\"in_global_search\":0,\"collapsible\":0,\"unique\":0,\"no_copy\":0,\"allow_on_submit\":0,\"show_preview_popup\":0,\"permlevel\":0,\"ignore_user_permissions\":0,\"columns\":0,\"in_list_view\":0,\"fetch_if_empty\":0,\"in_filter\":0,\"remember_last_selected_value\":0,\"ignore_xss_filter\":0,\"print_hide_if_no_value\":0,\"allow_bulk_edit\":0,\"in_standard_filter\":0,\"in_preview\":0,\"read_only\":0,\"precision\":\"\",\"length\":0,\"translatable\":0,\"doctype\":\"DocField\"},{\"name\":\"7ba81f8d98\",\"creation\":\"2020-07-16 15:54:13.295068\",\"modified\":\"2020-07-17 12:58:45.524548\",\"modified_by\":\"works@f9tech.com\",\"owner\":\"works@f9tech.com\",\"docstatus\":0,\"parent\":\"Material Check Point\",\"parentfield\":\"fields\",\"parenttype\":\"DocType\",\"idx\":2,\"fieldname\":\"transportation_type\",\"label\":\"Trasportation Type\",\"fieldtype\":\"Select\",\"options\":\"\\nLocal\\nOutstation\",\"search_index\":0,\"hidden\":0,\"set_only_once\":0,\"allow_in_quick_entry\":0,\"print_hide\":0,\"report_hide\":0,\"reqd\":0,\"bold\":0,\"in_global_search\":0,\"collapsible\":0,\"unique\":0,\"no_copy\":0,\"allow_on_submit\":0,\"show_preview_popup\":0,\"permlevel\":0,\"ignore_user_permissions\":0,\"columns\":0,\"in_list_view\":0,\"fetch_if_empty\":0,\"in_filter\":0,\"remember_last_selected_value\":0,\"ignore_xss_filter\":0,\"print_hide_if_no_value\":0,\"allow_bulk_edit\":0,\"in_standard_filter\":0,\"in_preview\":0,\"read_only\":0,\"precision\":\"\",\"length\":0,\"translatable\":0,\"doctype\":\"DocField\"},{\"name\":\"66f2b5c660\",\"creation\":\"2020-07-16 15:54:13.295068\",\"modified\":\"2020-07-17 12:58:45.524548\",\"modified_by\":\"works@f9tech.com\",\"owner\":\"works@f9tech.com\",\"docstatus\":0,\"parent\":\"Material Check Point\",\"parentfield\":\"fields\",\"parenttype\":\"DocType\",\"idx\":3,\"fieldname\":\"naming_series\",\"label\":\"Purchase order Number\",\"fieldtype\":\"Link\",\"options\":\"Purchase Order\",\"search_index\":0,\"hidden\":0,\"set_only_once\":0,\"allow_in_quick_entry\":0,\"print_hide\":0,\"report_hide\":0,\"reqd\":0,\"bold\":0,\"in_global_search\":0,\"collapsible\":0,\"unique\":0,\"no_copy\":0,\"allow_on_submit\":0,\"show_preview_popup\":0,\"depends_on\":\"eval:doc.transportation_type == 'Local' || doc.transportation_type == 'Outstation'\",\"permlevel\":0,\"ignore_user_permissions\":0,\"columns\":0,\"in_list_view\":0,\"fetch_if_empty\":0,\"in_filter\":0,\"remember_last_selected_value\":0,\"ignore_xss_filter\":0,\"print_hide_if_no_value\":0,\"allow_bulk_edit\":0,\"in_standard_filter\":0,\"in_preview\":0,\"read_only\":0,\"precision\":\"\",\"length\":0,\"translatable\":0,\"doctype\":\"DocField\"},{\"docstatus\":0,\"doctype\":\"DocField\",\"name\":\"7dd6ce7393\",\"owner\":\"works@f9tech.com\",\"fieldtype\":\"Section Break\",\"precision\":\"\",\"translatable\":0,\"permlevel\":0,\"parent\":\"Material Check Point\",\"parentfield\":\"fields\",\"parenttype\":\"DocType\",\"idx\":4,\"creation\":\"2020-07-16 15:54:13.295068\",\"modified\":\"2020-07-17 12:58:45.524548\",\"modified_by\":\"works@f9tech.com\",\"fieldname\":\"section_break_4\",\"search_index\":0,\"hidden\":0,\"set_only_once\":0,\"allow_in_quick_entry\":0,\"print_hide\":0,\"report_hide\":0,\"reqd\":0,\"bold\":0,\"in_global_search\":0,\"collapsible\":0,\"unique\":0,\"no_copy\":0,\"allow_on_submit\":0,\"ignore_user_permissions\":0,\"columns\":0,\"in_list_view\":0,\"fetch_if_empty\":0,\"in_filter\":0,\"remember_last_selected_value\":0,\"ignore_xss_filter\":0,\"print_hide_if_no_value\":0,\"allow_bulk_edit\":0,\"in_standard_filter\":0,\"in_preview\":0,\"read_only\":0,\"length\":0},{\"docstatus\":0,\"doctype\":\"DocField\",\"name\":\"cc7b024ff2\",\"owner\":\"works@f9tech.com\",\"fieldtype\":\"Heading\",\"precision\":\"\",\"translatable\":0,\"permlevel\":0,\"parent\":\"Material Check Point\",\"parentfield\":\"fields\",\"parenttype\":\"DocType\",\"idx\":5,\"depends_on\":\"\",\"label\":\"Local\",\"creation\":\"2020-07-16 15:54:13.295068\",\"modified\":\"2020-07-17 12:58:45.524548\",\"modified_by\":\"works@f9tech.com\",\"fieldname\":\"local\",\"search_index\":0,\"hidden\":0,\"set_only_once\":0,\"allow_in_quick_entry\":0,\"print_hide\":0,\"report_hide\":0,\"reqd\":0,\"bold\":0,\"in_global_search\":0,\"collapsible\":0,\"unique\":0,\"no_copy\":0,\"allow_on_submit\":0,\"ignore_user_permissions\":0,\"columns\":0,\"in_list_view\":0,\"fetch_if_empty\":0,\"in_filter\":0,\"remember_last_selected_value\":0,\"ignore_xss_filter\":0,\"print_hide_if_no_value\":0,\"allow_bulk_edit\":0,\"in_standard_filter\":0,\"in_preview\":0,\"read_only\":0,\"length\":0},{\"name\":\"82c83b2873\",\"creation\":\"2020-07-16 15:54:13.295068\",\"modified\":\"2020-07-17 12:58:45.524548\",\"modified_by\":\"works@f9tech.com\",\"owner\":\"works@f9tech.com\",\"docstatus\":0,\"parent\":\"Material Check Point\",\"parentfield\":\"fields\",\"parenttype\":\"DocType\",\"idx\":6,\"fieldname\":\"supplier_name\",\"label\":\"Supplier Name\",\"fieldtype\":\"Data\",\"search_index\":0,\"hidden\":0,\"set_only_once\":0,\"allow_in_quick_entry\":0,\"print_hide\":0,\"report_hide\":0,\"reqd\":0,\"bold\":0,\"in_global_search\":0,\"collapsible\":0,\"unique\":0,\"no_copy\":0,\"allow_on_submit\":0,\"show_preview_popup\":0,\"permlevel\":0,\"ignore_user_permissions\":0,\"columns\":0,\"in_list_view\":0,\"fetch_if_empty\":0,\"in_filter\":0,\"remember_last_selected_value\":0,\"ignore_xss_filter\":0,\"print_hide_if_no_value\":0,\"allow_bulk_edit\":0,\"in_standard_filter\":0,\"in_preview\":0,\"read_only\":0,\"precision\":\"\",\"length\":0,\"translatable\":0,\"fetch_from\":\"naming_series.supplier_name\",\"doctype\":\"DocField\",\"depends_on\":\"eval:doc.transportation_type == 'Local'\"},{\"name\":\"8478425039\",\"creation\":\"2020-07-16 15:54:13.295068\",\"modified\":\"2020-07-17 12:58:45.524548\",\"modified_by\":\"works@f9tech.com\",\"owner\":\"works@f9tech.com\",\"docstatus\":0,\"parent\":\"Material Check Point\",\"parentfield\":\"fields\",\"parenttype\":\"DocType\",\"idx\":7,\"fieldname\":\"invoice_number\",\"label\":\"Invoice Number\",\"fieldtype\":\"Data\",\"search_index\":0,\"hidden\":0,\"set_only_once\":0,\"allow_in_quick_entry\":0,\"print_hide\":0,\"report_hide\":0,\"reqd\":0,\"bold\":0,\"in_global_search\":0,\"collapsible\":0,\"unique\":0,\"no_copy\":0,\"allow_on_submit\":0,\"show_preview_popup\":0,\"permlevel\":0,\"ignore_user_permissions\":0,\"columns\":0,\"in_list_view\":0,\"fetch_if_empty\":0,\"in_filter\":0,\"remember_last_selected_value\":0,\"ignore_xss_filter\":0,\"print_hide_if_no_value\":0,\"allow_bulk_edit\":0,\"in_standard_filter\":0,\"in_preview\":0,\"read_only\":0,\"precision\":\"\",\"length\":0,\"translatable\":0,\"doctype\":\"DocField\",\"depends_on\":\"eval:doc.transportation_type == 'Local'\"},{\"name\":\"3af82b25b5\",\"creation\":\"2020-07-16 15:54:13.295068\",\"modified\":\"2020-07-17 12:58:45.524548\",\"modified_by\":\"works@f9tech.com\",\"owner\":\"works@f9tech.com\",\"docstatus\":0,\"parent\":\"Material Check Point\",\"parentfield\":\"fields\",\"parenttype\":\"DocType\",\"idx\":8,\"fieldname\":\"total_qty\",\"label\":\"No.of Qty\",\"fieldtype\":\"Float\",\"search_index\":0,\"hidden\":0,\"set_only_once\":0,\"allow_in_quick_entry\":0,\"print_hide\":0,\"report_hide\":0,\"reqd\":0,\"bold\":0,\"in_global_search\":0,\"collapsible\":0,\"unique\":0,\"no_copy\":0,\"allow_on_submit\":0,\"show_preview_popup\":0,\"permlevel\":0,\"ignore_user_permissions\":0,\"columns\":0,\"in_list_view\":0,\"fetch_if_empty\":0,\"in_filter\":0,\"remember_last_selected_value\":0,\"ignore_xss_filter\":0,\"print_hide_if_no_value\":0,\"allow_bulk_edit\":0,\"in_standard_filter\":0,\"in_preview\":0,\"read_only\":0,\"precision\":\"\",\"length\":0,\"translatable\":0,\"fetch_from\":\"naming_series.total_qty\",\"doctype\":\"DocField\",\"depends_on\":\"eval:doc.transportation_type == 'Local'\"},{\"name\":\"241b653aa7\",\"creation\":\"2020-07-16 15:54:13.295068\",\"modified\":\"2020-07-17 12:58:45.524548\",\"modified_by\":\"works@f9tech.com\",\"owner\":\"works@f9tech.com\",\"docstatus\":0,\"parent\":\"Material Check Point\",\"parentfield\":\"fields\",\"parenttype\":\"DocType\",\"idx\":9,\"fieldname\":\"rcv_qty\",\"label\":\"Receiving Qty\",\"fieldtype\":\"Data\",\"search_index\":0,\"hidden\":0,\"set_only_once\":0,\"allow_in_quick_entry\":0,\"print_hide\":0,\"report_hide\":0,\"reqd\":0,\"bold\":0,\"in_global_search\":0,\"collapsible\":0,\"unique\":0,\"no_copy\":0,\"allow_on_submit\":0,\"show_preview_popup\":0,\"permlevel\":0,\"ignore_user_permissions\":0,\"columns\":0,\"in_list_view\":0,\"fetch_if_empty\":0,\"in_filter\":0,\"remember_last_selected_value\":0,\"ignore_xss_filter\":0,\"print_hide_if_no_value\":0,\"allow_bulk_edit\":0,\"in_standard_filter\":0,\"in_preview\":0,\"read_only\":0,\"precision\":\"\",\"length\":0,\"translatable\":0,\"doctype\":\"DocField\",\"depends_on\":\"eval:doc.transportation_type == 'Local'\"},{\"name\":\"98d65aab92\",\"creation\":\"2020-07-16 15:54:13.295068\",\"modified\":\"2020-07-17 12:58:45.524548\",\"modified_by\":\"works@f9tech.com\",\"owner\":\"works@f9tech.com\",\"docstatus\":0,\"parent\":\"Material Check Point\",\"parentfield\":\"fields\",\"parenttype\":\"DocType\",\"idx\":10,\"fieldname\":\"blnc_qty\",\"label\":\"Balance Qty\",\"fieldtype\":\"Data\",\"search_index\":0,\"hidden\":0,\"set_only_once\":0,\"allow_in_quick_entry\":0,\"print_hide\":0,\"report_hide\":0,\"reqd\":0,\"bold\":0,\"in_global_search\":0,\"collapsible\":0,\"unique\":0,\"no_copy\":0,\"allow_on_submit\":0,\"show_preview_popup\":0,\"permlevel\":0,\"ignore_user_permissions\":0,\"columns\":0,\"in_list_view\":0,\"fetch_if_empty\":0,\"in_filter\":0,\"remember_last_selected_value\":0,\"ignore_xss_filter\":0,\"print_hide_if_no_value\":0,\"allow_bulk_edit\":0,\"in_standard_filter\":0,\"in_preview\":0,\"read_only\":0,\"precision\":\"\",\"length\":0,\"translatable\":0,\"doctype\":\"DocField\",\"depends_on\":\"eval:doc.transportation_type == 'Local'\"},{\"docstatus\":0,\"doctype\":\"DocField\",\"name\":\"8d5d38f21d\",\"owner\":\"works@f9tech.com\",\"fieldtype\":\"Column Break\",\"precision\":\"\",\"translatable\":0,\"permlevel\":0,\"parent\":\"Material Check Point\",\"parentfield\":\"fields\",\"parenttype\":\"DocType\",\"idx\":11,\"creation\":\"2020-07-16 15:54:13.295068\",\"modified\":\"2020-07-17 12:58:45.524548\",\"modified_by\":\"works@f9tech.com\",\"fieldname\":\"column_break_11\",\"search_index\":0,\"hidden\":0,\"set_only_once\":0,\"allow_in_quick_entry\":0,\"print_hide\":0,\"report_hide\":0,\"reqd\":0,\"bold\":0,\"in_global_search\":0,\"collapsible\":0,\"unique\":0,\"no_copy\":0,\"allow_on_submit\":0,\"ignore_user_permissions\":0,\"columns\":0,\"in_list_view\":0,\"fetch_if_empty\":0,\"in_filter\":0,\"remember_last_selected_value\":0,\"ignore_xss_filter\":0,\"print_hide_if_no_value\":0,\"allow_bulk_edit\":0,\"in_standard_filter\":0,\"in_preview\":0,\"read_only\":0,\"length\":0},{\"docstatus\":0,\"doctype\":\"DocField\",\"name\":\"b3c92d3d68\",\"owner\":\"works@f9tech.com\",\"fieldtype\":\"Heading\",\"precision\":\"\",\"translatable\":0,\"permlevel\":0,\"parent\":\"Material Check Point\",\"parentfield\":\"fields\",\"parenttype\":\"DocType\",\"idx\":12,\"label\":\"Out Station\",\"creation\":\"2020-07-16 15:54:13.295068\",\"modified\":\"2020-07-17 12:58:45.524548\",\"modified_by\":\"works@f9tech.com\",\"fieldname\":\"out_station\",\"search_index\":0,\"hidden\":0,\"set_only_once\":0,\"allow_in_quick_entry\":0,\"print_hide\":0,\"report_hide\":0,\"reqd\":0,\"bold\":0,\"in_global_search\":0,\"collapsible\":0,\"unique\":0,\"no_copy\":0,\"allow_on_submit\":0,\"ignore_user_permissions\":0,\"columns\":0,\"in_list_view\":0,\"fetch_if_empty\":0,\"in_filter\":0,\"remember_last_selected_value\":0,\"ignore_xss_filter\":0,\"print_hide_if_no_value\":0,\"allow_bulk_edit\":0,\"in_standard_filter\":0,\"in_preview\":0,\"read_only\":0,\"length\":0},{\"name\":\"f04d32c016\",\"creation\":\"2020-07-16 15:54:13.295068\",\"modified\":\"2020-07-17 12:58:45.524548\",\"modified_by\":\"works@f9tech.com\",\"owner\":\"works@f9tech.com\",\"docstatus\":0,\"parent\":\"Material Check Point\",\"parentfield\":\"fields\",\"parenttype\":\"DocType\",\"idx\":13,\"fieldname\":\"lr_number\",\"label\":\"LR Number\",\"fieldtype\":\"Data\",\"search_index\":0,\"hidden\":0,\"set_only_once\":0,\"allow_in_quick_entry\":0,\"print_hide\":0,\"report_hide\":0,\"reqd\":0,\"bold\":0,\"in_global_search\":0,\"collapsible\":0,\"unique\":0,\"no_copy\":0,\"allow_on_submit\":0,\"show_preview_popup\":0,\"depends_on\":\"eval:doc.transportation_type == 'Outstation'\",\"permlevel\":0,\"ignore_user_permissions\":0,\"columns\":0,\"in_list_view\":0,\"fetch_if_empty\":0,\"in_filter\":0,\"remember_last_selected_value\":0,\"ignore_xss_filter\":0,\"print_hide_if_no_value\":0,\"allow_bulk_edit\":0,\"in_standard_filter\":0,\"in_preview\":0,\"read_only\":0,\"precision\":\"\",\"length\":0,\"translatable\":0,\"fetch_from\":\"naming_series.lr_number\",\"doctype\":\"DocField\"},{\"docstatus\":0,\"doctype\":\"DocField\",\"name\":\"24e9515981\",\"owner\":\"works@f9tech.com\",\"fieldtype\":\"Data\",\"precision\":\"\",\"translatable\":0,\"permlevel\":0,\"parent\":\"Material Check Point\",\"parentfield\":\"fields\",\"parenttype\":\"DocType\",\"idx\":14,\"label\":\"Supplier NameS\",\"fieldname\":\"supplier_names\",\"creation\":\"2020-07-16 15:54:13.295068\",\"modified\":\"2020-07-17 12:58:45.524548\",\"modified_by\":\"works@f9tech.com\",\"search_index\":0,\"hidden\":0,\"set_only_once\":0,\"allow_in_quick_entry\":0,\"print_hide\":0,\"report_hide\":0,\"reqd\":0,\"bold\":0,\"in_global_search\":0,\"collapsible\":0,\"unique\":0,\"no_copy\":0,\"allow_on_submit\":0,\"ignore_user_permissions\":0,\"columns\":0,\"in_list_view\":0,\"fetch_if_empty\":0,\"in_filter\":0,\"remember_last_selected_value\":0,\"ignore_xss_filter\":0,\"print_hide_if_no_value\":0,\"allow_bulk_edit\":0,\"in_standard_filter\":0,\"in_preview\":0,\"read_only\":0,\"length\":0,\"depends_on\":\"\",\"fetch_from\":\"naming_series.supplier_name\"},{\"docstatus\":0,\"doctype\":\"DocField\",\"name\":\"e6236cf3b9\",\"owner\":\"works@f9tech.com\",\"fieldtype\":\"Data\",\"precision\":\"\",\"translatable\":0,\"permlevel\":0,\"parent\":\"Material Check Point\",\"parentfield\":\"fields\",\"parenttype\":\"DocType\",\"idx\":15,\"label\":\"Transporter Name\",\"fieldname\":\"transporter_name\",\"creation\":\"2020-07-16 15:54:13.295068\",\"modified\":\"2020-07-17 12:58:45.524548\",\"modified_by\":\"works@f9tech.com\",\"search_index\":0,\"hidden\":0,\"set_only_once\":0,\"allow_in_quick_entry\":0,\"print_hide\":0,\"report_hide\":0,\"reqd\":0,\"bold\":0,\"in_global_search\":0,\"collapsible\":0,\"unique\":0,\"no_copy\":0,\"allow_on_submit\":0,\"ignore_user_permissions\":0,\"columns\":0,\"in_list_view\":0,\"fetch_if_empty\":0,\"in_filter\":0,\"remember_last_selected_value\":0,\"ignore_xss_filter\":0,\"print_hide_if_no_value\":0,\"allow_bulk_edit\":0,\"in_standard_filter\":0,\"in_preview\":0,\"read_only\":0,\"length\":0,\"depends_on\":\"\",\"fetch_from\":\"naming_series.transporter_name\"},{\"docstatus\":0,\"doctype\":\"DocField\",\"name\":\"c03ea3cdbf\",\"owner\":\"works@f9tech.com\",\"fieldtype\":\"Data\",\"precision\":\"\",\"translatable\":0,\"permlevel\":0,\"parent\":\"Material Check Point\",\"parentfield\":\"fields\",\"parenttype\":\"DocType\",\"idx\":16,\"label\":\"Booking Date\",\"fieldname\":\"booking_date\",\"creation\":\"2020-07-16 15:54:13.295068\",\"modified\":\"2020-07-17 12:58:45.524548\",\"modified_by\":\"works@f9tech.com\",\"search_index\":0,\"hidden\":0,\"set_only_once\":0,\"allow_in_quick_entry\":0,\"print_hide\":0,\"report_hide\":0,\"reqd\":0,\"bold\":0,\"in_global_search\":0,\"collapsible\":0,\"unique\":0,\"no_copy\":0,\"allow_on_submit\":0,\"ignore_user_permissions\":0,\"columns\":0,\"in_list_view\":0,\"fetch_if_empty\":0,\"in_filter\":0,\"remember_last_selected_value\":0,\"ignore_xss_filter\":0,\"print_hide_if_no_value\":0,\"allow_bulk_edit\":0,\"in_standard_filter\":0,\"in_preview\":0,\"read_only\":0,\"length\":0,\"depends_on\":\"\",\"fetch_from\":\"transporter_name.booking_date\"},{\"docstatus\":0,\"doctype\":\"DocField\",\"name\":\"44ed1c1977\",\"owner\":\"works@f9tech.com\",\"fieldtype\":\"Data\",\"precision\":\"\",\"translatable\":0,\"permlevel\":0,\"parent\":\"Material Check Point\",\"parentfield\":\"fields\",\"parenttype\":\"DocType\",\"idx\":17,\"label\":\"Receiving Date\",\"fieldname\":\"receiving_date\",\"creation\":\"2020-07-16 15:54:13.295068\",\"modified\":\"2020-07-17 12:58:45.524548\",\"modified_by\":\"works@f9tech.com\",\"search_index\":0,\"hidden\":0,\"set_only_once\":0,\"allow_in_quick_entry\":0,\"print_hide\":0,\"report_hide\":0,\"reqd\":0,\"bold\":0,\"in_global_search\":0,\"collapsible\":0,\"unique\":0,\"no_copy\":0,\"allow_on_submit\":0,\"ignore_user_permissions\":0,\"columns\":0,\"in_list_view\":0,\"fetch_if_empty\":0,\"in_filter\":0,\"remember_last_selected_value\":0,\"ignore_xss_filter\":0,\"print_hide_if_no_value\":0,\"allow_bulk_edit\":0,\"in_standard_filter\":0,\"in_preview\":0,\"read_only\":0,\"length\":0,\"depends_on\":\"\",\"fetch_from\":\"naming_series.receiving_date\"}],\"permissions\":[{\"name\":\"f58174ea38\",\"creation\":\"2020-07-16 15:54:13.295068\",\"modified\":\"2020-07-17 12:58:45.524548\",\"modified_by\":\"works@f9tech.com\",\"owner\":\"works@f9tech.com\",\"docstatus\":0,\"parent\":\"Material Check Point\",\"parentfield\":\"permissions\",\"parenttype\":\"DocType\",\"idx\":1,\"permlevel\":0,\"role\":\"System Manager\",\"read\":1,\"write\":1,\"create\":1,\"submit\":0,\"cancel\":0,\"delete\":1,\"amend\":0,\"report\":1,\"export\":1,\"import\":0,\"share\":1,\"print\":1,\"email\":1,\"if_owner\":0,\"set_user_permissions\":0,\"doctype\":\"DocPerm\"}],\"__unsaved\":1}"
}
Request Error
Traceback (most recent call last):
  File "/home/frappe/frappe-bench/apps/frappe/frappe/app.py", line 60, in application
    response = frappe.api.handle()
  File "/home/frappe/frappe-bench/apps/frappe/frappe/api.py", line 55, in handle
    return frappe.handler.handle()
  File "/home/frappe/frappe-bench/apps/frappe/frappe/handler.py", line 22, in handle
    data = execute_cmd(cmd)
  File "/home/frappe/frappe-bench/apps/frappe/frappe/handler.py", line 61, in execute_cmd
    return frappe.call(method, **frappe.form_dict)
  File "/home/frappe/frappe-bench/apps/frappe/frappe/__init__.py", line 1051, in call
    return fn(*args, **newargs)
  File "/home/frappe/frappe-bench/apps/frappe/frappe/desk/form/save.py", line 22, in savedocs
    doc.save()
  File "/home/frappe/frappe-bench/apps/frappe/frappe/model/document.py", line 273, in save
    return self._save(*args, **kwargs)
  File "/home/frappe/frappe-bench/apps/frappe/frappe/model/document.py", line 326, in _save
    self.run_post_save_methods()
  File "/home/frappe/frappe-bench/apps/frappe/frappe/model/document.py", line 926, in run_post_save_methods
    self.run_method("on_update")
  File "/home/frappe/frappe-bench/apps/frappe/frappe/model/document.py", line 794, in run_method
    out = Document.hook(fn)(self, *args, **kwargs)
  File "/home/frappe/frappe-bench/apps/frappe/frappe/model/document.py", line 1065, in composer
    return composed(self, method, *args, **kwargs)
  File "/home/frappe/frappe-bench/apps/frappe/frappe/model/document.py", line 1048, in runner
    add_to_return_value(self, fn(self, *args, **kwargs))
  File "/home/frappe/frappe-bench/apps/frappe/frappe/model/document.py", line 788, in <lambda>
    fn = lambda self, *args, **kwargs: getattr(self, method)(*args, **kwargs)
  File "/home/frappe/frappe-bench/apps/frappe/frappe/core/doctype/doctype/doctype.py", line 286, in on_update
    self.update_fields_to_fetch()
  File "/home/frappe/frappe-bench/apps/frappe/frappe/core/doctype/doctype/doctype.py", line 176, in update_fields_to_fetch
    frappe.db.sql(query)
  File "/home/frappe/frappe-bench/apps/frappe/frappe/database/database.py", line 171, in sql
    self._cursor.execute(query)
  File "/home/frappe/frappe-bench/env/lib/python3.6/site-packages/pymysql/cursors.py", line 170, in execute
    result = self._query(query)
  File "/home/frappe/frappe-bench/env/lib/python3.6/site-packages/pymysql/cursors.py", line 328, in _query
    conn.query(q)
  File "/home/frappe/frappe-bench/env/lib/python3.6/site-packages/pymysql/connections.py", line 517, in query
    self._affected_rows = self._read_query_result(unbuffered=unbuffered)
  File "/home/frappe/frappe-bench/env/lib/python3.6/site-packages/pymysql/connections.py", line 732, in _read_query_result
    result.read()
  File "/home/frappe/frappe-bench/env/lib/python3.6/site-packages/pymysql/connections.py", line 1075, in read
    first_packet = self.connection._read_packet()
  File "/home/frappe/frappe-bench/env/lib/python3.6/site-packages/pymysql/connections.py", line 684, in _read_packet
    packet.check_error()
  File "/home/frappe/frappe-bench/env/lib/python3.6/site-packages/pymysql/protocol.py", line 220, in check_error
    err.raise_mysql_exception(self._data)
  File "/home/frappe/frappe-bench/env/lib/python3.6/site-packages/pymysql/err.py", line 109, in raise_mysql_exception
    raise errorclass(errno, errval)
pymysql.err.InternalError: (1054, "Unknown column 'source.receiving_date' in 'field list'")
[ERROR] 2020-07-17 08:01:15,131 | /home/frappe/frappe-bench/apps/frappe/frappe/app.py:
Site: site1.local
Form Dict: {
 "action": "Save",
 "cmd": "frappe.desk.form.save.savedocs",
 "doc": "{\"name\":\"Material Check Point\",\"creation\":\"2020-07-16 15:54:13.295068\",\"modified\":\"2020-07-17 13:29:10.395679\",\"modified_by\":\"works@f9tech.com\",\"owner\":\"works@f9tech.com\",\"docstatus\":0,\"idx\":0,\"issingle\":0,\"is_tree\":0,\"istable\":0,\"editable_grid\":1,\"track_changes\":1,\"module\":\"Stock\",\"autoname\":\"naming_series:\",\"name_case\":\"\",\"sort_field\":\"modified\",\"sort_order\":\"DESC\",\"read_only\":0,\"in_create\":0,\"allow_copy\":0,\"allow_rename\":0,\"allow_import\":0,\"hide_toolbar\":0,\"track_seen\":0,\"max_attachments\":0,\"document_type\":\"Document\",\"engine\":\"InnoDB\",\"is_submittable\":0,\"show_name_in_global_search\":0,\"custom\":1,\"beta\":0,\"has_web_view\":0,\"allow_guest_to_view\":0,\"track_views\":0,\"allow_auto_repeat\":0,\"allow_events_in_timeline\":0,\"quick_entry\":1,\"show_preview_popup\":0,\"doctype\":\"DocType\",\"fields\":[{\"name\":\"689261b01c\",\"creation\":\"2020-07-16 15:54:13.295068\",\"modified\":\"2020-07-17 13:29:10.395679\",\"modified_by\":\"works@f9tech.com\",\"owner\":\"works@f9tech.com\",\"docstatus\":0,\"parent\":\"Material Check Point\",\"parentfield\":\"fields\",\"parenttype\":\"DocType\",\"idx\":1,\"fieldname\":\"material_checking_point\",\"label\":\"Material checking point\",\"fieldtype\":\"Data\",\"search_index\":0,\"hidden\":0,\"set_only_once\":0,\"allow_in_quick_entry\":0,\"print_hide\":0,\"report_hide\":0,\"reqd\":0,\"bold\":0,\"in_global_search\":0,\"collapsible\":0,\"unique\":0,\"no_copy\":0,\"allow_on_submit\":0,\"show_preview_popup\":0,\"permlevel\":0,\"ignore_user_permissions\":0,\"columns\":0,\"in_list_view\":0,\"fetch_if_empty\":0,\"in_filter\":0,\"remember_last_selected_value\":0,\"ignore_xss_filter\":0,\"print_hide_if_no_value\":0,\"allow_bulk_edit\":0,\"in_standard_filter\":0,\"in_preview\":0,\"read_only\":0,\"precision\":\"\",\"length\":0,\"translatable\":0,\"doctype\":\"DocField\"},{\"name\":\"7ba81f8d98\",\"creation\":\"2020-07-16 15:54:13.295068\",\"modified\":\"2020-07-17 13:29:10.395679\",\"modified_by\":\"works@f9tech.com\",\"owner\":\"works@f9tech.com\",\"docstatus\":0,\"parent\":\"Material Check Point\",\"parentfield\":\"fields\",\"parenttype\":\"DocType\",\"idx\":2,\"fieldname\":\"transportation_type\",\"label\":\"Trasportation Type\",\"fieldtype\":\"Select\",\"options\":\"\\nLocal\\nOutstation\",\"search_index\":0,\"hidden\":0,\"set_only_once\":0,\"allow_in_quick_entry\":0,\"print_hide\":0,\"report_hide\":0,\"reqd\":0,\"bold\":0,\"in_global_search\":0,\"collapsible\":0,\"unique\":0,\"no_copy\":0,\"allow_on_submit\":0,\"show_preview_popup\":0,\"permlevel\":0,\"ignore_user_permissions\":0,\"columns\":0,\"in_list_view\":0,\"fetch_if_empty\":0,\"in_filter\":0,\"remember_last_selected_value\":0,\"ignore_xss_filter\":0,\"print_hide_if_no_value\":0,\"allow_bulk_edit\":0,\"in_standard_filter\":0,\"in_preview\":0,\"read_only\":0,\"precision\":\"\",\"length\":0,\"translatable\":0,\"doctype\":\"DocField\"},{\"name\":\"66f2b5c660\",\"creation\":\"2020-07-16 15:54:13.295068\",\"modified\":\"2020-07-17 13:29:10.395679\",\"modified_by\":\"works@f9tech.com\",\"owner\":\"works@f9tech.com\",\"docstatus\":0,\"parent\":\"Material Check Point\",\"parentfield\":\"fields\",\"parenttype\":\"DocType\",\"idx\":3,\"fieldname\":\"naming_series\",\"label\":\"Purchase order Number\",\"fieldtype\":\"Link\",\"options\":\"Purchase Order\",\"search_index\":0,\"hidden\":0,\"set_only_once\":0,\"allow_in_quick_entry\":0,\"print_hide\":0,\"report_hide\":0,\"reqd\":0,\"bold\":0,\"in_global_search\":0,\"collapsible\":0,\"unique\":0,\"no_copy\":0,\"allow_on_submit\":0,\"show_preview_popup\":0,\"depends_on\":\"eval:doc.transportation_type == 'Local' || doc.transportation_type == 'Outstation'\",\"permlevel\":0,\"ignore_user_permissions\":0,\"columns\":0,\"in_list_view\":0,\"fetch_if_empty\":0,\"in_filter\":0,\"remember_last_selected_value\":0,\"ignore_xss_filter\":0,\"print_hide_if_no_value\":0,\"allow_bulk_edit\":0,\"in_standard_filter\":0,\"in_preview\":0,\"read_only\":0,\"precision\":\"\",\"length\":0,\"translatable\":0,\"doctype\":\"DocField\"},{\"name\":\"7dd6ce7393\",\"creation\":\"2020-07-16 15:54:13.295068\",\"modified\":\"2020-07-17 13:29:10.395679\",\"modified_by\":\"works@f9tech.com\",\"owner\":\"works@f9tech.com\",\"docstatus\":0,\"parent\":\"Material Check Point\",\"parentfield\":\"fields\",\"parenttype\":\"DocType\",\"idx\":4,\"fieldname\":\"section_break_4\",\"fieldtype\":\"Section Break\",\"search_index\":0,\"hidden\":0,\"set_only_once\":0,\"allow_in_quick_entry\":0,\"print_hide\":0,\"report_hide\":0,\"reqd\":0,\"bold\":0,\"in_global_search\":0,\"collapsible\":0,\"unique\":0,\"no_copy\":0,\"allow_on_submit\":0,\"show_preview_popup\":0,\"permlevel\":0,\"ignore_user_permissions\":0,\"columns\":0,\"in_list_view\":0,\"fetch_if_empty\":0,\"in_filter\":0,\"remember_last_selected_value\":0,\"ignore_xss_filter\":0,\"print_hide_if_no_value\":0,\"allow_bulk_edit\":0,\"in_standard_filter\":0,\"in_preview\":0,\"read_only\":0,\"precision\":\"\",\"length\":0,\"translatable\":0,\"doctype\":\"DocField\"},{\"name\":\"cc7b024ff2\",\"creation\":\"2020-07-16 15:54:13.295068\",\"modified\":\"2020-07-17 13:29:10.395679\",\"modified_by\":\"works@f9tech.com\",\"owner\":\"works@f9tech.com\",\"docstatus\":0,\"parent\":\"Material Check Point\",\"parentfield\":\"fields\",\"parenttype\":\"DocType\",\"idx\":5,\"fieldname\":\"local\",\"label\":\"Local\",\"fieldtype\":\"Heading\",\"search_index\":0,\"hidden\":0,\"set_only_once\":0,\"allow_in_quick_entry\":0,\"print_hide\":0,\"report_hide\":0,\"reqd\":0,\"bold\":0,\"in_global_search\":0,\"collapsible\":0,\"unique\":0,\"no_copy\":0,\"allow_on_submit\":0,\"show_preview_popup\":0,\"depends_on\":\"\",\"permlevel\":0,\"ignore_user_permissions\":0,\"columns\":0,\"in_list_view\":0,\"fetch_if_empty\":0,\"in_filter\":0,\"remember_last_selected_value\":0,\"ignore_xss_filter\":0,\"print_hide_if_no_value\":0,\"allow_bulk_edit\":0,\"in_standard_filter\":0,\"in_preview\":0,\"read_only\":0,\"precision\":\"\",\"length\":0,\"translatable\":0,\"doctype\":\"DocField\"},{\"name\":\"82c83b2873\",\"creation\":\"2020-07-16 15:54:13.295068\",\"modified\":\"2020-07-17 13:29:10.395679\",\"modified_by\":\"works@f9tech.com\",\"owner\":\"works@f9tech.com\",\"docstatus\":0,\"parent\":\"Material Check Point\",\"parentfield\":\"fields\",\"parenttype\":\"DocType\",\"idx\":6,\"fieldname\":\"supplier_name\",\"label\":\"Supplier Name\",\"fieldtype\":\"Data\",\"search_index\":0,\"hidden\":0,\"set_only_once\":0,\"allow_in_quick_entry\":0,\"print_hide\":0,\"report_hide\":0,\"reqd\":0,\"bold\":0,\"in_global_search\":0,\"collapsible\":0,\"unique\":0,\"no_copy\":0,\"allow_on_submit\":0,\"show_preview_popup\":0,\"depends_on\":\"eval:doc.transportation_type == 'Local'\",\"permlevel\":0,\"ignore_user_permissions\":0,\"columns\":0,\"in_list_view\":0,\"fetch_if_empty\":0,\"in_filter\":0,\"remember_last_selected_value\":0,\"ignore_xss_filter\":0,\"print_hide_if_no_value\":0,\"allow_bulk_edit\":0,\"in_standard_filter\":0,\"in_preview\":0,\"read_only\":0,\"precision\":\"\",\"length\":0,\"translatable\":0,\"fetch_from\":\"naming_series.supplier_name\",\"doctype\":\"DocField\"},{\"docstatus\":0,\"doctype\":\"DocField\",\"name\":\"c8e32259ff\",\"owner\":\"works@f9tech.com\",\"fieldtype\":\"Small Text\",\"precision\":\"\",\"translatable\":0,\"permlevel\":0,\"parent\":\"Material Check Point\",\"parentfield\":\"fields\",\"parenttype\":\"DocType\",\"idx\":7,\"label\":\"Address\",\"fieldname\":\"address_display\",\"fetch_from\":\"naming_series.address_display\",\"creation\":\"2020-07-16 15:54:13.295068\",\"modified\":\"2020-07-17 13:29:10.395679\",\"modified_by\":\"works@f9tech.com\",\"search_index\":0,\"hidden\":0,\"set_only_once\":0,\"allow_in_quick_entry\":0,\"print_hide\":0,\"report_hide\":0,\"reqd\":0,\"bold\":1,\"in_global_search\":0,\"collapsible\":0,\"unique\":0,\"no_copy\":0,\"allow_on_submit\":0,\"ignore_user_permissions\":0,\"columns\":0,\"in_list_view\":0,\"fetch_if_empty\":0,\"in_filter\":0,\"remember_last_selected_value\":0,\"ignore_xss_filter\":0,\"print_hide_if_no_value\":0,\"allow_bulk_edit\":0,\"in_standard_filter\":0,\"in_preview\":0,\"read_only\":1,\"length\":0,\"depends_on\":\"eval:doc.transportation_type == 'Local'\"},{\"name\":\"8478425039\",\"creation\":\"2020-07-16 15:54:13.295068\",\"modified\":\"2020-07-17 13:29:10.395679\",\"modified_by\":\"works@f9tech.com\",\"owner\":\"works@f9tech.com\",\"docstatus\":0,\"parent\":\"Material Check Point\",\"parentfield\":\"fields\",\"parenttype\":\"DocType\",\"idx\":8,\"fieldname\":\"invoice_number\",\"label\":\"Invoice Number\",\"fieldtype\":\"Data\",\"search_index\":0,\"hidden\":0,\"set_only_once\":0,\"allow_in_quick_entry\":0,\"print_hide\":0,\"report_hide\":0,\"reqd\":0,\"bold\":0,\"in_global_search\":0,\"collapsible\":0,\"unique\":0,\"no_copy\":0,\"allow_on_submit\":0,\"show_preview_popup\":0,\"depends_on\":\"eval:doc.transportation_type == 'Local'\",\"permlevel\":0,\"ignore_user_permissions\":0,\"columns\":0,\"in_list_view\":0,\"fetch_if_empty\":0,\"in_filter\":0,\"remember_last_selected_value\":0,\"ignore_xss_filter\":0,\"print_hide_if_no_value\":0,\"allow_bulk_edit\":0,\"in_standard_filter\":0,\"in_preview\":0,\"read_only\":0,\"precision\":\"\",\"length\":0,\"translatable\":0,\"doctype\":\"DocField\"},{\"name\":\"3af82b25b5\",\"creation\":\"2020-07-16 15:54:13.295068\",\"modified\":\"2020-07-17 13:29:10.395679\",\"modified_by\":\"works@f9tech.com\",\"owner\":\"works@f9tech.com\",\"docstatus\":0,\"parent\":\"Material Check Point\",\"parentfield\":\"fields\",\"parenttype\":\"DocType\",\"idx\":9,\"fieldname\":\"total_qty\",\"label\":\"No.of Qty\",\"fieldtype\":\"Float\",\"search_index\":0,\"hidden\":0,\"set_only_once\":0,\"allow_in_quick_entry\":0,\"print_hide\":0,\"report_hide\":0,\"reqd\":0,\"bold\":0,\"in_global_search\":0,\"collapsible\":0,\"unique\":0,\"no_copy\":0,\"allow_on_submit\":0,\"show_preview_popup\":0,\"depends_on\":\"eval:doc.transportation_type == 'Local'\",\"permlevel\":0,\"ignore_user_permissions\":0,\"columns\":0,\"in_list_view\":0,\"fetch_if_empty\":0,\"in_filter\":0,\"remember_last_selected_value\":0,\"ignore_xss_filter\":0,\"print_hide_if_no_value\":0,\"allow_bulk_edit\":0,\"in_standard_filter\":0,\"in_preview\":0,\"read_only\":0,\"precision\":\"\",\"length\":0,\"translatable\":0,\"fetch_from\":\"naming_series.total_qty\",\"doctype\":\"DocField\"},{\"name\":\"241b653aa7\",\"creation\":\"2020-07-16 15:54:13.295068\",\"modified\":\"2020-07-17 13:29:10.395679\",\"modified_by\":\"works@f9tech.com\",\"owner\":\"works@f9tech.com\",\"docstatus\":0,\"parent\":\"Material Check Point\",\"parentfield\":\"fields\",\"parenttype\":\"DocType\",\"idx\":10,\"fieldname\":\"rcv_qty\",\"label\":\"Receiving Qty\",\"fieldtype\":\"Data\",\"search_index\":0,\"hidden\":0,\"set_only_once\":0,\"allow_in_quick_entry\":0,\"print_hide\":0,\"report_hide\":0,\"reqd\":0,\"bold\":0,\"in_global_search\":0,\"collapsible\":0,\"unique\":0,\"no_copy\":0,\"allow_on_submit\":0,\"show_preview_popup\":0,\"depends_on\":\"eval:doc.transportation_type == 'Local'\",\"permlevel\":0,\"ignore_user_permissions\":0,\"columns\":0,\"in_list_view\":0,\"fetch_if_empty\":0,\"in_filter\":0,\"remember_last_selected_value\":0,\"ignore_xss_filter\":0,\"print_hide_if_no_value\":0,\"allow_bulk_edit\":0,\"in_standard_filter\":0,\"in_preview\":0,\"read_only\":0,\"precision\":\"\",\"length\":0,\"translatable\":0,\"doctype\":\"DocField\"},{\"name\":\"98d65aab92\",\"creation\":\"2020-07-16 15:54:13.295068\",\"modified\":\"2020-07-17 13:29:10.395679\",\"modified_by\":\"works@f9tech.com\",\"owner\":\"works@f9tech.com\",\"docstatus\":0,\"parent\":\"Material Check Point\",\"parentfield\":\"fields\",\"parenttype\":\"DocType\",\"idx\":11,\"fieldname\":\"blnc_qty\",\"label\":\"Balance Qty\",\"fieldtype\":\"Data\",\"search_index\":0,\"hidden\":0,\"set_only_once\":0,\"allow_in_quick_entry\":0,\"print_hide\":0,\"report_hide\":0,\"reqd\":0,\"bold\":0,\"in_global_search\":0,\"collapsible\":0,\"unique\":0,\"no_copy\":0,\"allow_on_submit\":0,\"show_preview_popup\":0,\"depends_on\":\"eval:doc.transportation_type == 'Local'\",\"permlevel\":0,\"ignore_user_permissions\":0,\"columns\":0,\"in_list_view\":0,\"fetch_if_empty\":0,\"in_filter\":0,\"remember_last_selected_value\":0,\"ignore_xss_filter\":0,\"print_hide_if_no_value\":0,\"allow_bulk_edit\":0,\"in_standard_filter\":0,\"in_preview\":0,\"read_only\":0,\"precision\":\"\",\"length\":0,\"translatable\":0,\"doctype\":\"DocField\"},{\"name\":\"8d5d38f21d\",\"creation\":\"2020-07-16 15:54:13.295068\",\"modified\":\"2020-07-17 13:29:10.395679\",\"modified_by\":\"works@f9tech.com\",\"owner\":\"works@f9tech.com\",\"docstatus\":0,\"parent\":\"Material Check Point\",\"parentfield\":\"fields\",\"parenttype\":\"DocType\",\"idx\":12,\"fieldname\":\"column_break_11\",\"fieldtype\":\"Column Break\",\"search_index\":0,\"hidden\":0,\"set_only_once\":0,\"allow_in_quick_entry\":0,\"print_hide\":0,\"report_hide\":0,\"reqd\":0,\"bold\":0,\"in_global_search\":0,\"collapsible\":0,\"unique\":0,\"no_copy\":0,\"allow_on_submit\":0,\"show_preview_popup\":0,\"permlevel\":0,\"ignore_user_permissions\":0,\"columns\":0,\"in_list_view\":0,\"fetch_if_empty\":0,\"in_filter\":0,\"remember_last_selected_value\":0,\"ignore_xss_filter\":0,\"print_hide_if_no_value\":0,\"allow_bulk_edit\":0,\"in_standard_filter\":0,\"in_preview\":0,\"read_only\":0,\"precision\":\"\",\"length\":0,\"translatable\":0,\"doctype\":\"DocField\"},{\"name\":\"b3c92d3d68\",\"creation\":\"2020-07-16 15:54:13.295068\",\"modified\":\"2020-07-17 13:29:10.395679\",\"modified_by\":\"works@f9tech.com\",\"owner\":\"works@f9tech.com\",\"docstatus\":0,\"parent\":\"Material Check Point\",\"parentfield\":\"fields\",\"parenttype\":\"DocType\",\"idx\":13,\"fieldname\":\"out_station\",\"label\":\"Out Station\",\"fieldtype\":\"Heading\",\"search_index\":0,\"hidden\":0,\"set_only_once\":0,\"allow_in_quick_entry\":0,\"print_hide\":0,\"report_hide\":0,\"reqd\":0,\"bold\":0,\"in_global_search\":0,\"collapsible\":0,\"unique\":0,\"no_copy\":0,\"allow_on_submit\":0,\"show_preview_popup\":0,\"permlevel\":0,\"ignore_user_permissions\":0,\"columns\":0,\"in_list_view\":0,\"fetch_if_empty\":0,\"in_filter\":0,\"remember_last_selected_value\":0,\"ignore_xss_filter\":0,\"print_hide_if_no_value\":0,\"allow_bulk_edit\":0,\"in_standard_filter\":0,\"in_preview\":0,\"read_only\":0,\"precision\":\"\",\"length\":0,\"translatable\":0,\"doctype\":\"DocField\"},{\"name\":\"f04d32c016\",\"creation\":\"2020-07-16 15:54:13.295068\",\"modified\":\"2020-07-17 13:29:10.395679\",\"modified_by\":\"works@f9tech.com\",\"owner\":\"works@f9tech.com\",\"docstatus\":0,\"parent\":\"Material Check Point\",\"parentfield\":\"fields\",\"parenttype\":\"DocType\",\"idx\":14,\"fieldname\":\"lr_number\",\"label\":\"LR Number\",\"fieldtype\":\"Data\",\"search_index\":0,\"hidden\":0,\"set_only_once\":0,\"allow_in_quick_entry\":0,\"print_hide\":0,\"report_hide\":0,\"reqd\":0,\"bold\":0,\"in_global_search\":0,\"collapsible\":0,\"unique\":0,\"no_copy\":0,\"allow_on_submit\":0,\"show_preview_popup\":0,\"depends_on\":\"eval:doc.transportation_type == 'Outstation'\",\"permlevel\":0,\"ignore_user_permissions\":0,\"columns\":0,\"in_list_view\":0,\"fetch_if_empty\":0,\"in_filter\":0,\"remember_last_selected_value\":0,\"ignore_xss_filter\":0,\"print_hide_if_no_value\":0,\"allow_bulk_edit\":0,\"in_standard_filter\":0,\"in_preview\":0,\"read_only\":0,\"precision\":\"\",\"length\":0,\"translatable\":0,\"fetch_from\":\"naming_series.lr_number\",\"doctype\":\"DocField\"},{\"name\":\"24e9515981\",\"creation\":\"2020-07-16 15:54:13.295068\",\"modified\":\"2020-07-17 13:29:10.395679\",\"modified_by\":\"works@f9tech.com\",\"owner\":\"works@f9tech.com\",\"docstatus\":0,\"parent\":\"Material Check Point\",\"parentfield\":\"fields\",\"parenttype\":\"DocType\",\"idx\":15,\"fieldname\":\"supplier_names\",\"label\":\"Supplier Name\",\"fieldtype\":\"Data\",\"search_index\":0,\"hidden\":0,\"set_only_once\":0,\"allow_in_quick_entry\":0,\"print_hide\":0,\"report_hide\":0,\"reqd\":0,\"bold\":0,\"in_global_search\":0,\"collapsible\":0,\"unique\":0,\"no_copy\":0,\"allow_on_submit\":0,\"show_preview_popup\":0,\"depends_on\":\"eval:doc.transportation_type == 'Outstation'\",\"permlevel\":0,\"ignore_user_permissions\":0,\"columns\":0,\"in_list_view\":0,\"fetch_if_empty\":0,\"in_filter\":0,\"remember_last_selected_value\":0,\"ignore_xss_filter\":0,\"print_hide_if_no_value\":0,\"allow_bulk_edit\":0,\"in_standard_filter\":0,\"in_preview\":0,\"read_only\":0,\"precision\":\"\",\"length\":0,\"translatable\":0,\"fetch_from\":\"naming_series.supplier_name\",\"doctype\":\"DocField\"},{\"docstatus\":0,\"doctype\":\"DocField\",\"name\":\"New DocField 20\",\"__islocal\":1,\"__unsaved\":1,\"owner\":\"works@f9tech.com\",\"fieldtype\":\"Data\",\"precision\":\"\",\"translatable\":0,\"permlevel\":0,\"parent\":\"Material Check Point\",\"parentfield\":\"fields\",\"parenttype\":\"DocType\",\"idx\":16,\"__unedited\":false,\"depends_on\":\"\",\"label\":\"Address\",\"fieldname\":\"address_displays\",\"fetch_from\":\"naming_series.address_displays\"},{\"name\":\"e6236cf3b9\",\"creation\":\"2020-07-16 15:54:13.295068\",\"modified\":\"2020-07-17 13:29:10.395679\",\"modified_by\":\"works@f9tech.com\",\"owner\":\"works@f9tech.com\",\"docstatus\":0,\"parent\":\"Material Check Point\",\"parentfield\":\"fields\",\"parenttype\":\"DocType\",\"idx\":17,\"fieldname\":\"transporter_name\",\"label\":\"Transporter Name\",\"fieldtype\":\"Data\",\"search_index\":0,\"hidden\":0,\"set_only_once\":0,\"allow_in_quick_entry\":0,\"print_hide\":0,\"report_hide\":0,\"reqd\":0,\"bold\":0,\"in_global_search\":0,\"collapsible\":0,\"unique\":0,\"no_copy\":0,\"allow_on_submit\":0,\"show_preview_popup\":0,\"depends_on\":\"eval:doc.transportation_type == 'Outstation'\",\"permlevel\":0,\"ignore_user_permissions\":0,\"columns\":0,\"in_list_view\":0,\"fetch_if_empty\":0,\"in_filter\":0,\"remember_last_selected_value\":0,\"ignore_xss_filter\":0,\"print_hide_if_no_value\":0,\"allow_bulk_edit\":0,\"in_standard_filter\":0,\"in_preview\":0,\"read_only\":0,\"precision\":\"\",\"length\":0,\"translatable\":0,\"fetch_from\":\"naming_series.transporter_name\",\"doctype\":\"DocField\"},{\"name\":\"c03ea3cdbf\",\"creation\":\"2020-07-16 15:54:13.295068\",\"modified\":\"2020-07-17 13:29:10.395679\",\"modified_by\":\"works@f9tech.com\",\"owner\":\"works@f9tech.com\",\"docstatus\":0,\"parent\":\"Material Check Point\",\"parentfield\":\"fields\",\"parenttype\":\"DocType\",\"idx\":18,\"fieldname\":\"booking_date\",\"label\":\"Booking Date\",\"fieldtype\":\"Data\",\"search_index\":0,\"hidden\":0,\"set_only_once\":0,\"allow_in_quick_entry\":0,\"print_hide\":0,\"report_hide\":0,\"reqd\":0,\"bold\":0,\"in_global_search\":0,\"collapsible\":0,\"unique\":0,\"no_copy\":0,\"allow_on_submit\":0,\"show_preview_popup\":0,\"depends_on\":\"eval:doc.transportation_type == 'Outstation'\",\"permlevel\":0,\"ignore_user_permissions\":0,\"columns\":0,\"in_list_view\":0,\"fetch_if_empty\":0,\"in_filter\":0,\"remember_last_selected_value\":0,\"ignore_xss_filter\":0,\"print_hide_if_no_value\":0,\"allow_bulk_edit\":0,\"in_standard_filter\":0,\"in_preview\":0,\"read_only\":0,\"precision\":\"\",\"length\":0,\"translatable\":0,\"fetch_from\":\"naming_series.booking_date\",\"doctype\":\"DocField\"},{\"name\":\"44ed1c1977\",\"creation\":\"2020-07-16 15:54:13.295068\",\"modified\":\"2020-07-17 13:29:10.395679\",\"modified_by\":\"works@f9tech.com\",\"owner\":\"works@f9tech.com\",\"docstatus\":0,\"parent\":\"Material Check Point\",\"parentfield\":\"fields\",\"parenttype\":\"DocType\",\"idx\":19,\"fieldname\":\"delivery_date\",\"label\":\"Receiving Date\",\"fieldtype\":\"Data\",\"search_index\":0,\"hidden\":0,\"set_only_once\":0,\"allow_in_quick_entry\":0,\"print_hide\":0,\"report_hide\":0,\"reqd\":0,\"bold\":0,\"in_global_search\":0,\"collapsible\":0,\"unique\":0,\"no_copy\":0,\"allow_on_submit\":0,\"show_preview_popup\":0,\"depends_on\":\"eval:doc.transportation_type == 'Outstation'\",\"permlevel\":0,\"ignore_user_permissions\":0,\"columns\":0,\"in_list_view\":0,\"fetch_if_empty\":0,\"in_filter\":0,\"remember_last_selected_value\":0,\"ignore_xss_filter\":0,\"print_hide_if_no_value\":0,\"allow_bulk_edit\":0,\"in_standard_filter\":0,\"in_preview\":0,\"read_only\":0,\"precision\":\"\",\"length\":0,\"translatable\":0,\"fetch_from\":\"naming_series.delivery_date\",\"doctype\":\"DocField\"},{\"docstatus\":0,\"doctype\":\"DocField\",\"name\":\"fc91a22ff7\",\"owner\":\"works@f9tech.com\",\"fieldtype\":\"Section Break\",\"precision\":\"\",\"translatable\":0,\"permlevel\":0,\"parent\":\"Material Check Point\",\"parentfield\":\"fields\",\"parenttype\":\"DocType\",\"idx\":20,\"label\":\"Package Information\",\"creation\":\"2020-07-16 15:54:13.295068\",\"modified\":\"2020-07-17 13:29:10.395679\",\"modified_by\":\"works@f9tech.com\",\"fieldname\":\"package_information\",\"search_index\":0,\"hidden\":0,\"set_only_once\":0,\"allow_in_quick_entry\":0,\"print_hide\":0,\"report_hide\":0,\"reqd\":0,\"bold\":0,\"in_global_search\":0,\"collapsible\":0,\"unique\":0,\"no_copy\":0,\"allow_on_submit\":0,\"ignore_user_permissions\":0,\"columns\":0,\"in_list_view\":0,\"fetch_if_empty\":0,\"in_filter\":0,\"remember_last_selected_value\":0,\"ignore_xss_filter\":0,\"print_hide_if_no_value\":0,\"allow_bulk_edit\":0,\"in_standard_filter\":0,\"in_preview\":0,\"read_only\":0,\"length\":0},{\"docstatus\":0,\"doctype\":\"DocField\",\"name\":\"56b399c039\",\"owner\":\"works@f9tech.com\",\"fieldtype\":\"Data\",\"precision\":\"\",\"translatable\":0,\"permlevel\":0,\"parent\":\"Material Check Point\",\"parentfield\":\"fields\",\"parenttype\":\"DocType\",\"idx\":21,\"label\":\"Invoice No\",\"fieldname\":\"inv_no\",\"creation\":\"2020-07-16 15:54:13.295068\",\"modified\":\"2020-07-17 13:29:10.395679\",\"modified_by\":\"works@f9tech.com\",\"search_index\":0,\"hidden\":0,\"set_only_once\":0,\"allow_in_quick_entry\":0,\"print_hide\":0,\"report_hide\":0,\"reqd\":0,\"bold\":0,\"in_global_search\":0,\"collapsible\":0,\"unique\":0,\"no_copy\":0,\"allow_on_submit\":0,\"ignore_user_permissions\":0,\"columns\":0,\"in_list_view\":0,\"fetch_if_empty\":0,\"in_filter\":0,\"remember_last_selected_value\":0,\"ignore_xss_filter\":0,\"print_hide_if_no_value\":0,\"allow_bulk_edit\":0,\"in_standard_filter\":0,\"in_preview\":0,\"read_only\":0,\"length\":0},{\"docstatus\":0,\"doctype\":\"DocField\",\"name\":\"98c2c6d718\",\"owner\":\"works@f9tech.com\",\"fieldtype\":\"Date\",\"precision\":\"\",\"translatable\":0,\"permlevel\":0,\"parent\":\"Material Check Point\",\"parentfield\":\"fields\",\"parenttype\":\"DocType\",\"idx\":22,\"label\":\"Invoice Date\",\"fieldname\":\"inv_date\",\"creation\":\"2020-07-16 15:54:13.295068\",\"modified\":\"2020-07-17 13:29:10.395679\",\"modified_by\":\"works@f9tech.com\",\"search_index\":0,\"hidden\":0,\"set_only_once\":0,\"allow_in_quick_entry\":0,\"print_hide\":0,\"report_hide\":0,\"reqd\":0,\"bold\":0,\"in_global_search\":0,\"collapsible\":0,\"unique\":0,\"no_copy\":0,\"allow_on_submit\":0,\"ignore_user_permissions\":0,\"columns\":0,\"in_list_view\":0,\"fetch_if_empty\":0,\"in_filter\":0,\"remember_last_selected_value\":0,\"ignore_xss_filter\":0,\"print_hide_if_no_value\":0,\"allow_bulk_edit\":0,\"in_standard_filter\":0,\"in_preview\":0,\"read_only\":0,\"length\":0},{\"docstatus\":0,\"doctype\":\"DocField\",\"name\":\"21bdeb2551\",\"owner\":\"works@f9tech.com\",\"fieldtype\":\"Column Break\",\"precision\":\"\",\"translatable\":0,\"permlevel\":0,\"parent\":\"Material Check Point\",\"parentfield\":\"fields\",\"parenttype\":\"DocType\",\"idx\":23,\"creation\":\"2020-07-16 15:54:13.295068\",\"modified\":\"2020-07-17 13:29:10.395679\",\"modified_by\":\"works@f9tech.com\",\"fieldname\":\"column_break_22\",\"search_index\":0,\"hidden\":0,\"set_only_once\":0,\"allow_in_quick_entry\":0,\"print_hide\":0,\"report_hide\":0,\"reqd\":0,\"bold\":0,\"in_global_search\":0,\"collapsible\":0,\"unique\":0,\"no_copy\":0,\"allow_on_submit\":0,\"ignore_user_permissions\":0,\"columns\":0,\"in_list_view\":0,\"fetch_if_empty\":0,\"in_filter\":0,\"remember_last_selected_value\":0,\"ignore_xss_filter\":0,\"print_hide_if_no_value\":0,\"allow_bulk_edit\":0,\"in_standard_filter\":0,\"in_preview\":0,\"read_only\":0,\"length\":0},{\"docstatus\":0,\"doctype\":\"DocField\",\"name\":\"baa9f923cc\",\"owner\":\"works@f9tech.com\",\"fieldtype\":\"Data\",\"precision\":\"\",\"translatable\":0,\"permlevel\":0,\"parent\":\"Material Check Point\",\"parentfield\":\"fields\",\"parenttype\":\"DocType\",\"idx\":24,\"label\":\"Invoice Value\",\"fieldname\":\"inv_val\",\"creation\":\"2020-07-16 15:54:13.295068\",\"modified\":\"2020-07-17 13:29:10.395679\",\"modified_by\":\"works@f9tech.com\",\"search_index\":0,\"hidden\":0,\"set_only_once\":0,\"allow_in_quick_entry\":0,\"print_hide\":0,\"report_hide\":0,\"reqd\":0,\"bold\":0,\"in_global_search\":0,\"collapsible\":0,\"unique\":0,\"no_copy\":0,\"allow_on_submit\":0,\"ignore_user_permissions\":0,\"columns\":0,\"in_list_view\":0,\"fetch_if_empty\":0,\"in_filter\":0,\"remember_last_selected_value\":0,\"ignore_xss_filter\":0,\"print_hide_if_no_value\":0,\"allow_bulk_edit\":0,\"in_standard_filter\":0,\"in_preview\":0,\"read_only\":0,\"length\":0},{\"docstatus\":0,\"doctype\":\"DocField\",\"name\":\"77a21aa0d2\",\"owner\":\"works@f9tech.com\",\"fieldtype\":\"Data\",\"precision\":\"\",\"translatable\":0,\"permlevel\":0,\"parent\":\"Material Check Point\",\"parentfield\":\"fields\",\"parenttype\":\"DocType\",\"idx\":25,\"label\":\"No.Of Packs\",\"fieldname\":\"inv_pack\",\"creation\":\"2020-07-16 15:54:13.295068\",\"modified\":\"2020-07-17 13:29:10.395679\",\"modified_by\":\"works@f9tech.com\",\"search_index\":0,\"hidden\":0,\"set_only_once\":0,\"allow_in_quick_entry\":0,\"print_hide\":0,\"report_hide\":0,\"reqd\":0,\"bold\":0,\"in_global_search\":0,\"collapsible\":0,\"unique\":0,\"no_copy\":0,\"allow_on_submit\":0,\"ignore_user_permissions\":0,\"columns\":0,\"in_list_view\":0,\"fetch_if_empty\":0,\"in_filter\":0,\"remember_last_selected_value\":0,\"ignore_xss_filter\":0,\"print_hide_if_no_value\":0,\"allow_bulk_edit\":0,\"in_standard_filter\":0,\"in_preview\":0,\"read_only\":0,\"length\":0},{\"docstatus\":0,\"doctype\":\"DocField\",\"name\":\"e833da1254\",\"owner\":\"works@f9tech.com\",\"fieldtype\":\"Select\",\"precision\":\"\",\"translatable\":0,\"permlevel\":0,\"parent\":\"Material Check Point\",\"parentfield\":\"fields\",\"parenttype\":\"DocType\",\"idx\":26,\"label\":\"Packing type\",\"fieldname\":\"pack_type\",\"options\":\"Cartoon\\nGunny Bags\\nWooden Crates\\nBundle\\nPallet\\nOthers\",\"creation\":\"2020-07-16 15:54:13.295068\",\"modified\":\"2020-07-17 13:29:10.395679\",\"modified_by\":\"works@f9tech.com\",\"search_index\":0,\"hidden\":0,\"set_only_once\":0,\"allow_in_quick_entry\":0,\"print_hide\":0,\"report_hide\":0,\"reqd\":0,\"bold\":0,\"in_global_search\":0,\"collapsible\":0,\"unique\":0,\"no_copy\":0,\"allow_on_submit\":0,\"ignore_user_permissions\":0,\"columns\":0,\"in_list_view\":0,\"fetch_if_empty\":0,\"in_filter\":0,\"remember_last_selected_value\":0,\"ignore_xss_filter\":0,\"print_hide_if_no_value\":0,\"allow_bulk_edit\":0,\"in_standard_filter\":0,\"in_preview\":0,\"read_only\":0,\"length\":0},{\"docstatus\":0,\"doctype\":\"DocField\",\"name\":\"0ef3252d63\",\"owner\":\"works@f9tech.com\",\"fieldtype\":\"Section Break\",\"precision\":\"\",\"translatable\":0,\"permlevel\":0,\"parent\":\"Material Check Point\",\"parentfield\":\"fields\",\"parenttype\":\"DocType\",\"idx\":27,\"label\":\"Tranporter Amount\",\"creation\":\"2020-07-16 15:54:13.295068\",\"modified\":\"2020-07-17 13:29:10.395679\",\"modified_by\":\"works@f9tech.com\",\"fieldname\":\"tranporter_amount\",\"search_index\":0,\"hidden\":0,\"set_only_once\":0,\"allow_in_quick_entry\":0,\"print_hide\":0,\"report_hide\":0,\"reqd\":0,\"bold\":0,\"in_global_search\":0,\"collapsible\":0,\"unique\":0,\"no_copy\":0,\"allow_on_submit\":0,\"ignore_user_permissions\":0,\"columns\":0,\"in_list_view\":0,\"fetch_if_empty\":0,\"in_filter\":0,\"remember_last_selected_value\":0,\"ignore_xss_filter\":0,\"print_hide_if_no_value\":0,\"allow_bulk_edit\":0,\"in_standard_filter\":0,\"in_preview\":0,\"read_only\":0,\"length\":0},{\"docstatus\":0,\"doctype\":\"DocField\",\"name\":\"1b8b0f90fc\",\"owner\":\"works@f9tech.com\",\"fieldtype\":\"Data\",\"precision\":\"\",\"translatable\":0,\"permlevel\":0,\"parent\":\"Material Check Point\",\"parentfield\":\"fields\",\"parenttype\":\"DocType\",\"idx\":28,\"label\":\"Package weight\",\"fieldname\":\"package\",\"creation\":\"2020-07-16 15:54:13.295068\",\"modified\":\"2020-07-17 13:29:10.395679\",\"modified_by\":\"works@f9tech.com\",\"search_index\":0,\"hidden\":0,\"set_only_once\":0,\"allow_in_quick_entry\":0,\"print_hide\":0,\"report_hide\":0,\"reqd\":0,\"bold\":0,\"in_global_search\":0,\"collapsible\":0,\"unique\":0,\"no_copy\":0,\"allow_on_submit\":0,\"ignore_user_permissions\":0,\"columns\":0,\"in_list_view\":0,\"fetch_if_empty\":0,\"in_filter\":0,\"remember_last_selected_value\":0,\"ignore_xss_filter\":0,\"print_hide_if_no_value\":0,\"allow_bulk_edit\":0,\"in_standard_filter\":0,\"in_preview\":0,\"read_only\":0,\"length\":0},{\"docstatus\":0,\"doctype\":\"DocField\",\"name\":\"aa3d110629\",\"owner\":\"works@f9tech.com\",\"fieldtype\":\"Date\",\"precision\":\"\",\"translatable\":0,\"permlevel\":0,\"parent\":\"Material Check Point\",\"parentfield\":\"fields\",\"parenttype\":\"DocType\",\"idx\":29,\"label\":\"Booking From\",\"creation\":\"2020-07-16 15:54:13.295068\",\"modified\":\"2020-07-17 13:29:10.395679\",\"modified_by\":\"works@f9tech.com\",\"fieldname\":\"booking_from\",\"search_index\":0,\"hidden\":0,\"set_only_once\":0,\"allow_in_quick_entry\":0,\"print_hide\":0,\"report_hide\":0,\"reqd\":0,\"bold\":0,\"in_global_search\":0,\"collapsible\":0,\"unique\":0,\"no_copy\":0,\"allow_on_submit\":0,\"ignore_user_permissions\":0,\"columns\":0,\"in_list_view\":0,\"fetch_if_empty\":0,\"in_filter\":0,\"remember_last_selected_value\":0,\"ignore_xss_filter\":0,\"print_hide_if_no_value\":0,\"allow_bulk_edit\":0,\"in_standard_filter\":0,\"in_preview\":0,\"read_only\":0,\"length\":0},{\"docstatus\":0,\"doctype\":\"DocField\",\"name\":\"550e895e67\",\"owner\":\"works@f9tech.com\",\"fieldtype\":\"Date\",\"precision\":\"\",\"translatable\":0,\"permlevel\":0,\"parent\":\"Material Check Point\",\"parentfield\":\"fields\",\"parenttype\":\"DocType\",\"idx\":30,\"label\":\"Booking To\",\"creation\":\"2020-07-16 15:54:13.295068\",\"modified\":\"2020-07-17 13:29:10.395679\",\"modified_by\":\"works@f9tech.com\",\"fieldname\":\"booking_to\",\"search_index\":0,\"hidden\":0,\"set_only_once\":0,\"allow_in_quick_entry\":0,\"print_hide\":0,\"report_hide\":0,\"reqd\":0,\"bold\":0,\"in_global_search\":0,\"collapsible\":0,\"unique\":0,\"no_copy\":0,\"allow_on_submit\":0,\"ignore_user_permissions\":0,\"columns\":0,\"in_list_view\":0,\"fetch_if_empty\":0,\"in_filter\":0,\"remember_last_selected_value\":0,\"ignore_xss_filter\":0,\"print_hide_if_no_value\":0,\"allow_bulk_edit\":0,\"in_standard_filter\":0,\"in_preview\":0,\"read_only\":0,\"length\":0},{\"docstatus\":0,\"doctype\":\"DocField\",\"name\":\"2c3e9cd65d\",\"owner\":\"works@f9tech.com\",\"fieldtype\":\"Column Break\",\"precision\":\"\",\"translatable\":0,\"permlevel\":0,\"parent\":\"Material Check Point\",\"parentfield\":\"fields\",\"parenttype\":\"DocType\",\"idx\":31,\"creation\":\"2020-07-16 15:54:13.295068\",\"modified\":\"2020-07-17 13:29:10.395679\",\"modified_by\":\"works@f9tech.com\",\"fieldname\":\"column_break_29\",\"search_index\":0,\"hidden\":0,\"set_only_once\":0,\"allow_in_quick_entry\":0,\"print_hide\":0,\"report_hide\":0,\"reqd\":0,\"bold\":0,\"in_global_search\":0,\"collapsible\":0,\"unique\":0,\"no_copy\":0,\"allow_on_submit\":0,\"ignore_user_permissions\":0,\"columns\":0,\"in_list_view\":0,\"fetch_if_empty\":0,\"in_filter\":0,\"remember_last_selected_value\":0,\"ignore_xss_filter\":0,\"print_hide_if_no_value\":0,\"allow_bulk_edit\":0,\"in_standard_filter\":0,\"in_preview\":0,\"read_only\":0,\"length\":0},{\"docstatus\":0,\"doctype\":\"DocField\",\"name\":\"a542a55ccd\",\"owner\":\"works@f9tech.com\",\"fieldtype\":\"Data\",\"precision\":\"\",\"translatable\":0,\"permlevel\":0,\"parent\":\"Material Check Point\",\"parentfield\":\"fields\",\"parenttype\":\"DocType\",\"idx\":32,\"label\":\"Transporter\",\"creation\":\"2020-07-16 15:54:13.295068\",\"modified\":\"2020-07-17 13:29:10.395679\",\"modified_by\":\"works@f9tech.com\",\"fieldname\":\"transporter\",\"search_index\":0,\"hidden\":0,\"set_only_once\":0,\"allow_in_quick_entry\":0,\"print_hide\":0,\"report_hide\":0,\"reqd\":0,\"bold\":0,\"in_global_search\":0,\"collapsible\":0,\"unique\":0,\"no_copy\":0,\"allow_on_submit\":0,\"ignore_user_permissions\":0,\"columns\":0,\"in_list_view\":0,\"fetch_if_empty\":0,\"in_filter\":0,\"remember_last_selected_value\":0,\"ignore_xss_filter\":0,\"print_hide_if_no_value\":0,\"allow_bulk_edit\":0,\"in_standard_filter\":0,\"in_preview\":0,\"read_only\":0,\"length\":0},{\"docstatus\":0,\"doctype\":\"DocField\",\"name\":\"854d017fc8\",\"owner\":\"works@f9tech.com\",\"fieldtype\":\"Data\",\"precision\":\"\",\"translatable\":0,\"permlevel\":0,\"parent\":\"Material Check Point\",\"parentfield\":\"fields\",\"parenttype\":\"DocType\",\"idx\":33,\"label\":\"Hamali\",\"creation\":\"2020-07-16 15:54:13.295068\",\"modified\":\"2020-07-17 13:29:10.395679\",\"modified_by\":\"works@f9tech.com\",\"fieldname\":\"hamali\",\"search_index\":0,\"hidden\":0,\"set_only_once\":0,\"allow_in_quick_entry\":0,\"print_hide\":0,\"report_hide\":0,\"reqd\":0,\"bold\":0,\"in_global_search\":0,\"collapsible\":0,\"unique\":0,\"no_copy\":0,\"allow_on_submit\":0,\"ignore_user_permissions\":0,\"columns\":0,\"in_list_view\":0,\"fetch_if_empty\":0,\"in_filter\":0,\"remember_last_selected_value\":0,\"ignore_xss_filter\":0,\"print_hide_if_no_value\":0,\"allow_bulk_edit\":0,\"in_standard_filter\":0,\"in_preview\":0,\"read_only\":0,\"length\":0},{\"docstatus\":0,\"doctype\":\"DocField\",\"name\":\"51294fe7e1\",\"owner\":\"works@f9tech.com\",\"fieldtype\":\"Data\",\"precision\":\"\",\"translatable\":0,\"permlevel\":0,\"parent\":\"Material Check Point\",\"parentfield\":\"fields\",\"parenttype\":\"DocType\",\"idx\":34,\"label\":\"Others\",\"creation\":\"2020-07-16 15:54:13.295068\",\"modified\":\"2020-07-17 13:29:10.395679\",\"modified_by\":\"works@f9tech.com\",\"fieldname\":\"others\",\"search_index\":0,\"hidden\":0,\"set_only_once\":0,\"allow_in_quick_entry\":0,\"print_hide\":0,\"report_hide\":0,\"reqd\":0,\"bold\":0,\"in_global_search\":0,\"collapsible\":0,\"unique\":0,\"no_copy\":0,\"allow_on_submit\":0,\"ignore_user_permissions\":0,\"columns\":0,\"in_list_view\":0,\"fetch_if_empty\":0,\"in_filter\":0,\"remember_last_selected_value\":0,\"ignore_xss_filter\":0,\"print_hide_if_no_value\":0,\"allow_bulk_edit\":0,\"in_standard_filter\":0,\"in_preview\":0,\"read_only\":0,\"length\":0,\"depends_on\":\"eval:doc.transportation_type == 'Local'\"},{\"docstatus\":0,\"doctype\":\"DocField\",\"name\":\"f0152afdf1\",\"owner\":\"works@f9tech.com\",\"fieldtype\":\"Data\",\"precision\":\"\",\"translatable\":0,\"permlevel\":0,\"parent\":\"Material Check Point\",\"parentfield\":\"fields\",\"parenttype\":\"DocType\",\"idx\":35,\"label\":\"Description\",\"depends_on\":\"others\",\"creation\":\"2020-07-16 15:54:13.295068\",\"modified\":\"2020-07-17 13:29:10.395679\",\"modified_by\":\"works@f9tech.com\",\"fieldname\":\"description\",\"search_index\":0,\"hidden\":0,\"set_only_once\":0,\"allow_in_quick_entry\":0,\"print_hide\":0,\"report_hide\":0,\"reqd\":0,\"bold\":0,\"in_global_search\":0,\"collapsible\":0,\"unique\":0,\"no_copy\":0,\"allow_on_submit\":0,\"ignore_user_permissions\":0,\"columns\":0,\"in_list_view\":0,\"fetch_if_empty\":0,\"in_filter\":0,\"remember_last_selected_value\":0,\"ignore_xss_filter\":0,\"print_hide_if_no_value\":0,\"allow_bulk_edit\":0,\"in_standard_filter\":0,\"in_preview\":0,\"read_only\":0,\"length\":0}],\"permissions\":[{\"name\":\"f58174ea38\",\"creation\":\"2020-07-16 15:54:13.295068\",\"modified\":\"2020-07-17 13:29:10.395679\",\"modified_by\":\"works@f9tech.com\",\"owner\":\"works@f9tech.com\",\"docstatus\":0,\"parent\":\"Material Check Point\",\"parentfield\":\"permissions\",\"parenttype\":\"DocType\",\"idx\":1,\"permlevel\":0,\"role\":\"System Manager\",\"read\":1,\"write\":1,\"create\":1,\"submit\":0,\"cancel\":0,\"delete\":1,\"amend\":0,\"report\":1,\"export\":1,\"import\":0,\"share\":1,\"print\":1,\"email\":1,\"if_owner\":0,\"set_user_permissions\":0,\"doctype\":\"DocPerm\"}],\"__unsaved\":1}"
}
Request Error
Traceback (most recent call last):
  File "/home/frappe/frappe-bench/apps/frappe/frappe/app.py", line 60, in application
    response = frappe.api.handle()
  File "/home/frappe/frappe-bench/apps/frappe/frappe/api.py", line 55, in handle
    return frappe.handler.handle()
  File "/home/frappe/frappe-bench/apps/frappe/frappe/handler.py", line 22, in handle
    data = execute_cmd(cmd)
  File "/home/frappe/frappe-bench/apps/frappe/frappe/handler.py", line 61, in execute_cmd
    return frappe.call(method, **frappe.form_dict)
  File "/home/frappe/frappe-bench/apps/frappe/frappe/__init__.py", line 1051, in call
    return fn(*args, **newargs)
  File "/home/frappe/frappe-bench/apps/frappe/frappe/desk/form/save.py", line 22, in savedocs
    doc.save()
  File "/home/frappe/frappe-bench/apps/frappe/frappe/model/document.py", line 273, in save
    return self._save(*args, **kwargs)
  File "/home/frappe/frappe-bench/apps/frappe/frappe/model/document.py", line 326, in _save
    self.run_post_save_methods()
  File "/home/frappe/frappe-bench/apps/frappe/frappe/model/document.py", line 926, in run_post_save_methods
    self.run_method("on_update")
  File "/home/frappe/frappe-bench/apps/frappe/frappe/model/document.py", line 794, in run_method
    out = Document.hook(fn)(self, *args, **kwargs)
  File "/home/frappe/frappe-bench/apps/frappe/frappe/model/document.py", line 1065, in composer
    return composed(self, method, *args, **kwargs)
  File "/home/frappe/frappe-bench/apps/frappe/frappe/model/document.py", line 1048, in runner
    add_to_return_value(self, fn(self, *args, **kwargs))
  File "/home/frappe/frappe-bench/apps/frappe/frappe/model/document.py", line 788, in <lambda>
    fn = lambda self, *args, **kwargs: getattr(self, method)(*args, **kwargs)
  File "/home/frappe/frappe-bench/apps/frappe/frappe/core/doctype/doctype/doctype.py", line 286, in on_update
    self.update_fields_to_fetch()
  File "/home/frappe/frappe-bench/apps/frappe/frappe/core/doctype/doctype/doctype.py", line 176, in update_fields_to_fetch
    frappe.db.sql(query)
  File "/home/frappe/frappe-bench/apps/frappe/frappe/database/database.py", line 171, in sql
    self._cursor.execute(query)
  File "/home/frappe/frappe-bench/env/lib/python3.6/site-packages/pymysql/cursors.py", line 170, in execute
    result = self._query(query)
  File "/home/frappe/frappe-bench/env/lib/python3.6/site-packages/pymysql/cursors.py", line 328, in _query
    conn.query(q)
  File "/home/frappe/frappe-bench/env/lib/python3.6/site-packages/pymysql/connections.py", line 517, in query
    self._affected_rows = self._read_query_result(unbuffered=unbuffered)
  File "/home/frappe/frappe-bench/env/lib/python3.6/site-packages/pymysql/connections.py", line 732, in _read_query_result
    result.read()
  File "/home/frappe/frappe-bench/env/lib/python3.6/site-packages/pymysql/connections.py", line 1075, in read
    first_packet = self.connection._read_packet()
  File "/home/frappe/frappe-bench/env/lib/python3.6/site-packages/pymysql/connections.py", line 684, in _read_packet
    packet.check_error()
  File "/home/frappe/frappe-bench/env/lib/python3.6/site-packages/pymysql/protocol.py", line 220, in check_error
    err.raise_mysql_exception(self._data)
  File "/home/frappe/frappe-bench/env/lib/python3.6/site-packages/pymysql/err.py", line 109, in raise_mysql_exception
    raise errorclass(errno, errval)
pymysql.err.InternalError: (1054, "Unknown column 'source.address_displays' in 'field list'")
[ERROR] 2020-07-17 12:38:52,719 | /home/frappe/frappe-bench/apps/frappe/frappe/app.py:
Site: site1.local
Request Error
Traceback (most recent call last):
  File "/home/frappe/frappe-bench/apps/frappe/frappe/app.py", line 52, in application
    init_request(request)
  File "/home/frappe/frappe-bench/apps/frappe/frappe/app.py", line 105, in init_request
    frappe.init(site=site, sites_path=_sites_path)
  File "/home/frappe/frappe-bench/apps/frappe/frappe/__init__.py", line 150, in init
    local.conf = _dict(get_site_config())
  File "/home/frappe/frappe-bench/apps/frappe/frappe/__init__.py", line 221, in get_site_config
    config.update(get_file_json(site_config))
  File "/home/frappe/frappe-bench/apps/frappe/frappe/__init__.py", line 1019, in get_file_json
    return json.load(f)
  File "/usr/lib/python3.6/json/__init__.py", line 299, in load
    parse_constant=parse_constant, object_pairs_hook=object_pairs_hook, **kw)
  File "/usr/lib/python3.6/json/__init__.py", line 354, in loads
    return _default_decoder.decode(s)
  File "/usr/lib/python3.6/json/decoder.py", line 339, in decode
    obj, end = self.raw_decode(s, idx=_w(s, 0).end())
  File "/usr/lib/python3.6/json/decoder.py", line 355, in raw_decode
    obj, end = self.scan_once(s, idx)
json.decoder.JSONDecodeError: Expecting property name enclosed in double quotes: line 6 column 1 (char 95)
[ERROR] 2020-07-17 12:44:55,711 | /home/frappe/frappe-bench/apps/frappe/frappe/app.py:
Site: site1.local
Request Error
Traceback (most recent call last):
  File "/home/frappe/frappe-bench/apps/frappe/frappe/app.py", line 52, in application
    init_request(request)
  File "/home/frappe/frappe-bench/apps/frappe/frappe/app.py", line 105, in init_request
    frappe.init(site=site, sites_path=_sites_path)
  File "/home/frappe/frappe-bench/apps/frappe/frappe/__init__.py", line 150, in init
    local.conf = _dict(get_site_config())
  File "/home/frappe/frappe-bench/apps/frappe/frappe/__init__.py", line 221, in get_site_config
    config.update(get_file_json(site_config))
  File "/home/frappe/frappe-bench/apps/frappe/frappe/__init__.py", line 1019, in get_file_json
    return json.load(f)
  File "/usr/lib/python3.6/json/__init__.py", line 299, in load
    parse_constant=parse_constant, object_pairs_hook=object_pairs_hook, **kw)
  File "/usr/lib/python3.6/json/__init__.py", line 354, in loads
    return _default_decoder.decode(s)
  File "/usr/lib/python3.6/json/decoder.py", line 339, in decode
    obj, end = self.raw_decode(s, idx=_w(s, 0).end())
  File "/usr/lib/python3.6/json/decoder.py", line 355, in raw_decode
    obj, end = self.scan_once(s, idx)
json.decoder.JSONDecodeError: Expecting property name enclosed in double quotes: line 6 column 1 (char 115)
[ERROR] 2020-07-17 12:51:52,744 | /home/frappe/frappe-bench/apps/frappe/frappe/app.py:
Site: site1.local
Request Error
Traceback (most recent call last):
  File "/home/frappe/frappe-bench/apps/frappe/frappe/app.py", line 52, in application
    init_request(request)
  File "/home/frappe/frappe-bench/apps/frappe/frappe/app.py", line 105, in init_request
    frappe.init(site=site, sites_path=_sites_path)
  File "/home/frappe/frappe-bench/apps/frappe/frappe/__init__.py", line 150, in init
    local.conf = _dict(get_site_config())
  File "/home/frappe/frappe-bench/apps/frappe/frappe/__init__.py", line 221, in get_site_config
    config.update(get_file_json(site_config))
  File "/home/frappe/frappe-bench/apps/frappe/frappe/__init__.py", line 1019, in get_file_json
    return json.load(f)
  File "/usr/lib/python3.6/json/__init__.py", line 299, in load
    parse_constant=parse_constant, object_pairs_hook=object_pairs_hook, **kw)
  File "/usr/lib/python3.6/json/__init__.py", line 354, in loads
    return _default_decoder.decode(s)
  File "/usr/lib/python3.6/json/decoder.py", line 339, in decode
    obj, end = self.raw_decode(s, idx=_w(s, 0).end())
  File "/usr/lib/python3.6/json/decoder.py", line 355, in raw_decode
    obj, end = self.scan_once(s, idx)
json.decoder.JSONDecodeError: Expecting property name enclosed in double quotes: line 6 column 1 (char 115)
[ERROR] 2020-07-17 14:52:23,960 | /home/frappe/frappe-bench/apps/frappe/frappe/app.py:
Site: site1.local
Request Error
Traceback (most recent call last):
  File "/home/frappe/frappe-bench/apps/frappe/frappe/app.py", line 52, in application
    init_request(request)
  File "/home/frappe/frappe-bench/apps/frappe/frappe/app.py", line 105, in init_request
    frappe.init(site=site, sites_path=_sites_path)
  File "/home/frappe/frappe-bench/apps/frappe/frappe/__init__.py", line 150, in init
    local.conf = _dict(get_site_config())
  File "/home/frappe/frappe-bench/apps/frappe/frappe/__init__.py", line 221, in get_site_config
    config.update(get_file_json(site_config))
  File "/home/frappe/frappe-bench/apps/frappe/frappe/__init__.py", line 1019, in get_file_json
    return json.load(f)
  File "/usr/lib/python3.6/json/__init__.py", line 299, in load
    parse_constant=parse_constant, object_pairs_hook=object_pairs_hook, **kw)
  File "/usr/lib/python3.6/json/__init__.py", line 354, in loads
    return _default_decoder.decode(s)
  File "/usr/lib/python3.6/json/decoder.py", line 339, in decode
    obj, end = self.raw_decode(s, idx=_w(s, 0).end())
  File "/usr/lib/python3.6/json/decoder.py", line 355, in raw_decode
    obj, end = self.scan_once(s, idx)
json.decoder.JSONDecodeError: Expecting property name enclosed in double quotes: line 6 column 1 (char 115)
[ERROR] 2020-07-17 15:45:30,474 | /home/frappe/frappe-bench/apps/frappe/frappe/app.py:
Site: site1.local
Request Error
Traceback (most recent call last):
  File "/home/frappe/frappe-bench/apps/frappe/frappe/app.py", line 52, in application
    init_request(request)
  File "/home/frappe/frappe-bench/apps/frappe/frappe/app.py", line 105, in init_request
    frappe.init(site=site, sites_path=_sites_path)
  File "/home/frappe/frappe-bench/apps/frappe/frappe/__init__.py", line 150, in init
    local.conf = _dict(get_site_config())
  File "/home/frappe/frappe-bench/apps/frappe/frappe/__init__.py", line 221, in get_site_config
    config.update(get_file_json(site_config))
  File "/home/frappe/frappe-bench/apps/frappe/frappe/__init__.py", line 1019, in get_file_json
    return json.load(f)
  File "/usr/lib/python3.6/json/__init__.py", line 299, in load
    parse_constant=parse_constant, object_pairs_hook=object_pairs_hook, **kw)
  File "/usr/lib/python3.6/json/__init__.py", line 354, in loads
    return _default_decoder.decode(s)
  File "/usr/lib/python3.6/json/decoder.py", line 339, in decode
    obj, end = self.raw_decode(s, idx=_w(s, 0).end())
  File "/usr/lib/python3.6/json/decoder.py", line 355, in raw_decode
    obj, end = self.scan_once(s, idx)
json.decoder.JSONDecodeError: Expecting property name enclosed in double quotes: line 6 column 1 (char 115)
[ERROR] 2020-07-17 15:45:40,618 | /home/frappe/frappe-bench/apps/frappe/frappe/app.py:
Site: site1.local
Request Error
Traceback (most recent call last):
  File "/home/frappe/frappe-bench/apps/frappe/frappe/app.py", line 52, in application
    init_request(request)
  File "/home/frappe/frappe-bench/apps/frappe/frappe/app.py", line 105, in init_request
    frappe.init(site=site, sites_path=_sites_path)
  File "/home/frappe/frappe-bench/apps/frappe/frappe/__init__.py", line 150, in init
    local.conf = _dict(get_site_config())
  File "/home/frappe/frappe-bench/apps/frappe/frappe/__init__.py", line 221, in get_site_config
    config.update(get_file_json(site_config))
  File "/home/frappe/frappe-bench/apps/frappe/frappe/__init__.py", line 1019, in get_file_json
    return json.load(f)
  File "/usr/lib/python3.6/json/__init__.py", line 299, in load
    parse_constant=parse_constant, object_pairs_hook=object_pairs_hook, **kw)
  File "/usr/lib/python3.6/json/__init__.py", line 354, in loads
    return _default_decoder.decode(s)
  File "/usr/lib/python3.6/json/decoder.py", line 339, in decode
    obj, end = self.raw_decode(s, idx=_w(s, 0).end())
  File "/usr/lib/python3.6/json/decoder.py", line 355, in raw_decode
    obj, end = self.scan_once(s, idx)
json.decoder.JSONDecodeError: Expecting property name enclosed in double quotes: line 6 column 1 (char 115)
[ERROR] 2020-07-17 16:08:03,303 | /home/frappe/frappe-bench/apps/frappe/frappe/app.py:
Site: site1.local
Request Error
Traceback (most recent call last):
  File "/home/frappe/frappe-bench/apps/frappe/frappe/app.py", line 52, in application
    init_request(request)
  File "/home/frappe/frappe-bench/apps/frappe/frappe/app.py", line 105, in init_request
    frappe.init(site=site, sites_path=_sites_path)
  File "/home/frappe/frappe-bench/apps/frappe/frappe/__init__.py", line 150, in init
    local.conf = _dict(get_site_config())
  File "/home/frappe/frappe-bench/apps/frappe/frappe/__init__.py", line 221, in get_site_config
    config.update(get_file_json(site_config))
  File "/home/frappe/frappe-bench/apps/frappe/frappe/__init__.py", line 1019, in get_file_json
    return json.load(f)
  File "/usr/lib/python3.6/json/__init__.py", line 299, in load
    parse_constant=parse_constant, object_pairs_hook=object_pairs_hook, **kw)
  File "/usr/lib/python3.6/json/__init__.py", line 354, in loads
    return _default_decoder.decode(s)
  File "/usr/lib/python3.6/json/decoder.py", line 339, in decode
    obj, end = self.raw_decode(s, idx=_w(s, 0).end())
  File "/usr/lib/python3.6/json/decoder.py", line 355, in raw_decode
    obj, end = self.scan_once(s, idx)
json.decoder.JSONDecodeError: Expecting property name enclosed in double quotes: line 6 column 1 (char 115)
[ERROR] 2020-07-17 16:08:14,432 | /home/frappe/frappe-bench/apps/frappe/frappe/app.py:
Site: site1.local
Request Error
Traceback (most recent call last):
  File "/home/frappe/frappe-bench/apps/frappe/frappe/app.py", line 52, in application
    init_request(request)
  File "/home/frappe/frappe-bench/apps/frappe/frappe/app.py", line 105, in init_request
    frappe.init(site=site, sites_path=_sites_path)
  File "/home/frappe/frappe-bench/apps/frappe/frappe/__init__.py", line 150, in init
    local.conf = _dict(get_site_config())
  File "/home/frappe/frappe-bench/apps/frappe/frappe/__init__.py", line 221, in get_site_config
    config.update(get_file_json(site_config))
  File "/home/frappe/frappe-bench/apps/frappe/frappe/__init__.py", line 1019, in get_file_json
    return json.load(f)
  File "/usr/lib/python3.6/json/__init__.py", line 299, in load
    parse_constant=parse_constant, object_pairs_hook=object_pairs_hook, **kw)
  File "/usr/lib/python3.6/json/__init__.py", line 354, in loads
    return _default_decoder.decode(s)
  File "/usr/lib/python3.6/json/decoder.py", line 339, in decode
    obj, end = self.raw_decode(s, idx=_w(s, 0).end())
  File "/usr/lib/python3.6/json/decoder.py", line 355, in raw_decode
    obj, end = self.scan_once(s, idx)
json.decoder.JSONDecodeError: Expecting property name enclosed in double quotes: line 6 column 1 (char 115)
[ERROR] 2020-07-17 17:11:44,609 | /home/frappe/frappe-bench/apps/frappe/frappe/app.py:
Site: site1.local
Request Error
Traceback (most recent call last):
  File "/home/frappe/frappe-bench/apps/frappe/frappe/app.py", line 52, in application
    init_request(request)
  File "/home/frappe/frappe-bench/apps/frappe/frappe/app.py", line 105, in init_request
    frappe.init(site=site, sites_path=_sites_path)
  File "/home/frappe/frappe-bench/apps/frappe/frappe/__init__.py", line 150, in init
    local.conf = _dict(get_site_config())
  File "/home/frappe/frappe-bench/apps/frappe/frappe/__init__.py", line 221, in get_site_config
    config.update(get_file_json(site_config))
  File "/home/frappe/frappe-bench/apps/frappe/frappe/__init__.py", line 1019, in get_file_json
    return json.load(f)
  File "/usr/lib/python3.6/json/__init__.py", line 299, in load
    parse_constant=parse_constant, object_pairs_hook=object_pairs_hook, **kw)
  File "/usr/lib/python3.6/json/__init__.py", line 354, in loads
    return _default_decoder.decode(s)
  File "/usr/lib/python3.6/json/decoder.py", line 339, in decode
    obj, end = self.raw_decode(s, idx=_w(s, 0).end())
  File "/usr/lib/python3.6/json/decoder.py", line 355, in raw_decode
    obj, end = self.scan_once(s, idx)
json.decoder.JSONDecodeError: Expecting property name enclosed in double quotes: line 6 column 1 (char 115)
[ERROR] 2020-07-17 18:05:52,293 | /home/frappe/frappe-bench/apps/frappe/frappe/app.py:
Site: site1.local
Request Error
Traceback (most recent call last):
  File "/home/frappe/frappe-bench/apps/frappe/frappe/app.py", line 52, in application
    init_request(request)
  File "/home/frappe/frappe-bench/apps/frappe/frappe/app.py", line 105, in init_request
    frappe.init(site=site, sites_path=_sites_path)
  File "/home/frappe/frappe-bench/apps/frappe/frappe/__init__.py", line 150, in init
    local.conf = _dict(get_site_config())
  File "/home/frappe/frappe-bench/apps/frappe/frappe/__init__.py", line 221, in get_site_config
    config.update(get_file_json(site_config))
  File "/home/frappe/frappe-bench/apps/frappe/frappe/__init__.py", line 1019, in get_file_json
    return json.load(f)
  File "/usr/lib/python3.6/json/__init__.py", line 299, in load
    parse_constant=parse_constant, object_pairs_hook=object_pairs_hook, **kw)
  File "/usr/lib/python3.6/json/__init__.py", line 354, in loads
    return _default_decoder.decode(s)
  File "/usr/lib/python3.6/json/decoder.py", line 339, in decode
    obj, end = self.raw_decode(s, idx=_w(s, 0).end())
  File "/usr/lib/python3.6/json/decoder.py", line 355, in raw_decode
    obj, end = self.scan_once(s, idx)
json.decoder.JSONDecodeError: Expecting property name enclosed in double quotes: line 6 column 1 (char 115)
[ERROR] 2020-07-17 18:49:18,303 | /home/frappe/frappe-bench/apps/frappe/frappe/app.py:
Site: site1.local
Request Error
Traceback (most recent call last):
  File "/home/frappe/frappe-bench/apps/frappe/frappe/app.py", line 52, in application
    init_request(request)
  File "/home/frappe/frappe-bench/apps/frappe/frappe/app.py", line 105, in init_request
    frappe.init(site=site, sites_path=_sites_path)
  File "/home/frappe/frappe-bench/apps/frappe/frappe/__init__.py", line 150, in init
    local.conf = _dict(get_site_config())
  File "/home/frappe/frappe-bench/apps/frappe/frappe/__init__.py", line 221, in get_site_config
    config.update(get_file_json(site_config))
  File "/home/frappe/frappe-bench/apps/frappe/frappe/__init__.py", line 1019, in get_file_json
    return json.load(f)
  File "/usr/lib/python3.6/json/__init__.py", line 299, in load
    parse_constant=parse_constant, object_pairs_hook=object_pairs_hook, **kw)
  File "/usr/lib/python3.6/json/__init__.py", line 354, in loads
    return _default_decoder.decode(s)
  File "/usr/lib/python3.6/json/decoder.py", line 339, in decode
    obj, end = self.raw_decode(s, idx=_w(s, 0).end())
  File "/usr/lib/python3.6/json/decoder.py", line 355, in raw_decode
    obj, end = self.scan_once(s, idx)
json.decoder.JSONDecodeError: Expecting property name enclosed in double quotes: line 6 column 1 (char 115)
[ERROR] 2020-07-17 20:03:55,539 | /home/frappe/frappe-bench/apps/frappe/frappe/app.py:
Site: site1.local
Request Error
Traceback (most recent call last):
  File "/home/frappe/frappe-bench/apps/frappe/frappe/app.py", line 52, in application
    init_request(request)
  File "/home/frappe/frappe-bench/apps/frappe/frappe/app.py", line 105, in init_request
    frappe.init(site=site, sites_path=_sites_path)
  File "/home/frappe/frappe-bench/apps/frappe/frappe/__init__.py", line 150, in init
    local.conf = _dict(get_site_config())
  File "/home/frappe/frappe-bench/apps/frappe/frappe/__init__.py", line 221, in get_site_config
    config.update(get_file_json(site_config))
  File "/home/frappe/frappe-bench/apps/frappe/frappe/__init__.py", line 1019, in get_file_json
    return json.load(f)
  File "/usr/lib/python3.6/json/__init__.py", line 299, in load
    parse_constant=parse_constant, object_pairs_hook=object_pairs_hook, **kw)
  File "/usr/lib/python3.6/json/__init__.py", line 354, in loads
    return _default_decoder.decode(s)
  File "/usr/lib/python3.6/json/decoder.py", line 339, in decode
    obj, end = self.raw_decode(s, idx=_w(s, 0).end())
  File "/usr/lib/python3.6/json/decoder.py", line 355, in raw_decode
    obj, end = self.scan_once(s, idx)
json.decoder.JSONDecodeError: Expecting property name enclosed in double quotes: line 6 column 1 (char 115)
[ERROR] 2020-07-17 21:53:03,554 | /home/frappe/frappe-bench/apps/frappe/frappe/app.py:
Site: site1.local
Request Error
Traceback (most recent call last):
  File "/home/frappe/frappe-bench/apps/frappe/frappe/app.py", line 52, in application
    init_request(request)
  File "/home/frappe/frappe-bench/apps/frappe/frappe/app.py", line 105, in init_request
    frappe.init(site=site, sites_path=_sites_path)
  File "/home/frappe/frappe-bench/apps/frappe/frappe/__init__.py", line 150, in init
    local.conf = _dict(get_site_config())
  File "/home/frappe/frappe-bench/apps/frappe/frappe/__init__.py", line 221, in get_site_config
    config.update(get_file_json(site_config))
  File "/home/frappe/frappe-bench/apps/frappe/frappe/__init__.py", line 1019, in get_file_json
    return json.load(f)
  File "/usr/lib/python3.6/json/__init__.py", line 299, in load
    parse_constant=parse_constant, object_pairs_hook=object_pairs_hook, **kw)
  File "/usr/lib/python3.6/json/__init__.py", line 354, in loads
    return _default_decoder.decode(s)
  File "/usr/lib/python3.6/json/decoder.py", line 339, in decode
    obj, end = self.raw_decode(s, idx=_w(s, 0).end())
  File "/usr/lib/python3.6/json/decoder.py", line 355, in raw_decode
    obj, end = self.scan_once(s, idx)
json.decoder.JSONDecodeError: Expecting property name enclosed in double quotes: line 6 column 1 (char 115)
[ERROR] 2020-07-17 22:07:26,887 | /home/frappe/frappe-bench/apps/frappe/frappe/app.py:
Site: site1.local
Request Error
Traceback (most recent call last):
  File "/home/frappe/frappe-bench/apps/frappe/frappe/app.py", line 52, in application
    init_request(request)
  File "/home/frappe/frappe-bench/apps/frappe/frappe/app.py", line 105, in init_request
    frappe.init(site=site, sites_path=_sites_path)
  File "/home/frappe/frappe-bench/apps/frappe/frappe/__init__.py", line 150, in init
    local.conf = _dict(get_site_config())
  File "/home/frappe/frappe-bench/apps/frappe/frappe/__init__.py", line 221, in get_site_config
    config.update(get_file_json(site_config))
  File "/home/frappe/frappe-bench/apps/frappe/frappe/__init__.py", line 1019, in get_file_json
    return json.load(f)
  File "/usr/lib/python3.6/json/__init__.py", line 299, in load
    parse_constant=parse_constant, object_pairs_hook=object_pairs_hook, **kw)
  File "/usr/lib/python3.6/json/__init__.py", line 354, in loads
    return _default_decoder.decode(s)
  File "/usr/lib/python3.6/json/decoder.py", line 339, in decode
    obj, end = self.raw_decode(s, idx=_w(s, 0).end())
  File "/usr/lib/python3.6/json/decoder.py", line 355, in raw_decode
    obj, end = self.scan_once(s, idx)
json.decoder.JSONDecodeError: Expecting property name enclosed in double quotes: line 6 column 1 (char 115)
[ERROR] 2020-07-17 22:37:27,752 | /home/frappe/frappe-bench/apps/frappe/frappe/app.py:
Site: site1.local
Request Error
Traceback (most recent call last):
  File "/home/frappe/frappe-bench/apps/frappe/frappe/app.py", line 52, in application
    init_request(request)
  File "/home/frappe/frappe-bench/apps/frappe/frappe/app.py", line 105, in init_request
    frappe.init(site=site, sites_path=_sites_path)
  File "/home/frappe/frappe-bench/apps/frappe/frappe/__init__.py", line 150, in init
    local.conf = _dict(get_site_config())
  File "/home/frappe/frappe-bench/apps/frappe/frappe/__init__.py", line 221, in get_site_config
    config.update(get_file_json(site_config))
  File "/home/frappe/frappe-bench/apps/frappe/frappe/__init__.py", line 1019, in get_file_json
    return json.load(f)
  File "/usr/lib/python3.6/json/__init__.py", line 299, in load
    parse_constant=parse_constant, object_pairs_hook=object_pairs_hook, **kw)
  File "/usr/lib/python3.6/json/__init__.py", line 354, in loads
    return _default_decoder.decode(s)
  File "/usr/lib/python3.6/json/decoder.py", line 339, in decode
    obj, end = self.raw_decode(s, idx=_w(s, 0).end())
  File "/usr/lib/python3.6/json/decoder.py", line 355, in raw_decode
    obj, end = self.scan_once(s, idx)
json.decoder.JSONDecodeError: Expecting property name enclosed in double quotes: line 6 column 1 (char 115)
[ERROR] 2020-07-18 02:38:39,525 | /home/frappe/frappe-bench/apps/frappe/frappe/app.py:
Site: site1.local
Request Error
Traceback (most recent call last):
  File "/home/frappe/frappe-bench/apps/frappe/frappe/app.py", line 52, in application
    init_request(request)
  File "/home/frappe/frappe-bench/apps/frappe/frappe/app.py", line 105, in init_request
    frappe.init(site=site, sites_path=_sites_path)
  File "/home/frappe/frappe-bench/apps/frappe/frappe/__init__.py", line 150, in init
    local.conf = _dict(get_site_config())
  File "/home/frappe/frappe-bench/apps/frappe/frappe/__init__.py", line 221, in get_site_config
    config.update(get_file_json(site_config))
  File "/home/frappe/frappe-bench/apps/frappe/frappe/__init__.py", line 1019, in get_file_json
    return json.load(f)
  File "/usr/lib/python3.6/json/__init__.py", line 299, in load
    parse_constant=parse_constant, object_pairs_hook=object_pairs_hook, **kw)
  File "/usr/lib/python3.6/json/__init__.py", line 354, in loads
    return _default_decoder.decode(s)
  File "/usr/lib/python3.6/json/decoder.py", line 339, in decode
    obj, end = self.raw_decode(s, idx=_w(s, 0).end())
  File "/usr/lib/python3.6/json/decoder.py", line 355, in raw_decode
    obj, end = self.scan_once(s, idx)
json.decoder.JSONDecodeError: Expecting property name enclosed in double quotes: line 6 column 1 (char 115)
[ERROR] 2020-07-18 03:20:51,089 | /home/frappe/frappe-bench/apps/frappe/frappe/app.py:
Site: site1.local
Request Error
Traceback (most recent call last):
  File "/home/frappe/frappe-bench/apps/frappe/frappe/app.py", line 52, in application
    init_request(request)
  File "/home/frappe/frappe-bench/apps/frappe/frappe/app.py", line 105, in init_request
    frappe.init(site=site, sites_path=_sites_path)
  File "/home/frappe/frappe-bench/apps/frappe/frappe/__init__.py", line 150, in init
    local.conf = _dict(get_site_config())
  File "/home/frappe/frappe-bench/apps/frappe/frappe/__init__.py", line 221, in get_site_config
    config.update(get_file_json(site_config))
  File "/home/frappe/frappe-bench/apps/frappe/frappe/__init__.py", line 1019, in get_file_json
    return json.load(f)
  File "/usr/lib/python3.6/json/__init__.py", line 299, in load
    parse_constant=parse_constant, object_pairs_hook=object_pairs_hook, **kw)
  File "/usr/lib/python3.6/json/__init__.py", line 354, in loads
    return _default_decoder.decode(s)
  File "/usr/lib/python3.6/json/decoder.py", line 339, in decode
    obj, end = self.raw_decode(s, idx=_w(s, 0).end())
  File "/usr/lib/python3.6/json/decoder.py", line 355, in raw_decode
    obj, end = self.scan_once(s, idx)
json.decoder.JSONDecodeError: Expecting property name enclosed in double quotes: line 6 column 1 (char 115)
