[ERROR] 2020-07-15 06:35:51,235 | /home/frappe/frappe-bench/apps/frappe/frappe/app.py:
Site: site1.local
Form Dict: {
 "action": "Save",
 "cmd": "frappe.desk.form.save.savedocs",
 "doc": "{\"name\":\"BGL Stock Entry Level\",\"creation\":\"2020-06-09 15:36:17.276533\",\"modified\":\"2020-07-15 12:03:16.481777\",\"modified_by\":\"works@f9tech.com\",\"owner\":\"works@f9tech.com\",\"docstatus\":0,\"idx\":0,\"issingle\":0,\"is_tree\":0,\"istable\":0,\"editable_grid\":1,\"track_changes\":0,\"module\":\"Stock\",\"autoname\":\"naming_series:\",\"name_case\":\"\",\"sort_field\":\"modified\",\"sort_order\":\"DESC\",\"read_only\":0,\"in_create\":0,\"allow_copy\":0,\"allow_rename\":0,\"allow_import\":0,\"hide_toolbar\":0,\"track_seen\":1,\"max_attachments\":0,\"document_type\":\"Document\",\"engine\":\"InnoDB\",\"is_submittable\":0,\"show_name_in_global_search\":0,\"custom\":1,\"beta\":0,\"has_web_view\":0,\"allow_guest_to_view\":0,\"track_views\":1,\"allow_auto_repeat\":0,\"allow_events_in_timeline\":0,\"quick_entry\":0,\"show_preview_popup\":0,\"doctype\":\"DocType\",\"fields\":[{\"name\":\"e0ad592153\",\"creation\":\"2020-06-09 15:36:17.276533\",\"modified\":\"2020-07-15 12:03:16.481777\",\"modified_by\":\"works@f9tech.com\",\"owner\":\"works@f9tech.com\",\"docstatus\":0,\"parent\":\"BGL Stock Entry Level\",\"parentfield\":\"fields\",\"parenttype\":\"DocType\",\"idx\":1,\"fieldname\":\"stock_entry\",\"label\":\"STOCK ENTRY\",\"fieldtype\":\"Section Break\",\"options\":\"\",\"search_index\":0,\"hidden\":0,\"set_only_once\":0,\"allow_in_quick_entry\":0,\"print_hide\":0,\"report_hide\":0,\"reqd\":0,\"bold\":1,\"in_global_search\":0,\"collapsible\":0,\"unique\":0,\"no_copy\":0,\"allow_on_submit\":0,\"show_preview_popup\":0,\"permlevel\":0,\"ignore_user_permissions\":0,\"columns\":0,\"in_list_view\":0,\"fetch_if_empty\":0,\"in_filter\":0,\"remember_last_selected_value\":0,\"ignore_xss_filter\":0,\"print_hide_if_no_value\":0,\"allow_bulk_edit\":0,\"in_standard_filter\":0,\"in_preview\":0,\"read_only\":0,\"precision\":\"\",\"length\":0,\"translatable\":0,\"doctype\":\"DocField\"},{\"name\":\"dd11923592\",\"creation\":\"2020-06-09 15:36:17.276533\",\"modified\":\"2020-07-15 12:03:16.481777\",\"modified_by\":\"works@f9tech.com\",\"owner\":\"works@f9tech.com\",\"docstatus\":0,\"parent\":\"BGL Stock Entry Level\",\"parentfield\":\"fields\",\"parenttype\":\"DocType\",\"idx\":2,\"fieldname\":\"naming_series\",\"label\":\"Naming Series\",\"fieldtype\":\"Select\",\"options\":\"SEL-.YY.MM.-.vendor.-.####\",\"search_index\":0,\"hidden\":0,\"set_only_once\":0,\"allow_in_quick_entry\":0,\"print_hide\":0,\"report_hide\":0,\"reqd\":0,\"bold\":0,\"in_global_search\":0,\"collapsible\":0,\"unique\":0,\"no_copy\":0,\"allow_on_submit\":0,\"show_preview_popup\":0,\"permlevel\":0,\"ignore_user_permissions\":0,\"columns\":0,\"in_list_view\":0,\"fetch_if_empty\":0,\"in_filter\":0,\"remember_last_selected_value\":0,\"ignore_xss_filter\":0,\"print_hide_if_no_value\":0,\"allow_bulk_edit\":0,\"in_standard_filter\":0,\"in_preview\":0,\"read_only\":0,\"precision\":\"\",\"length\":0,\"translatable\":0,\"doctype\":\"DocField\"},{\"name\":\"39fbc759cb\",\"creation\":\"2020-06-09 15:36:17.276533\",\"modified\":\"2020-07-15 12:03:16.481777\",\"modified_by\":\"works@f9tech.com\",\"owner\":\"works@f9tech.com\",\"docstatus\":0,\"parent\":\"BGL Stock Entry Level\",\"parentfield\":\"fields\",\"parenttype\":\"DocType\",\"idx\":3,\"fieldname\":\"branch\",\"label\":\"Branch\",\"fieldtype\":\"Link\",\"options\":\"Branch\",\"search_index\":0,\"hidden\":0,\"set_only_once\":0,\"allow_in_quick_entry\":0,\"print_hide\":0,\"report_hide\":0,\"reqd\":0,\"bold\":0,\"in_global_search\":0,\"collapsible\":0,\"unique\":0,\"no_copy\":0,\"allow_on_submit\":0,\"show_preview_popup\":0,\"permlevel\":0,\"ignore_user_permissions\":0,\"columns\":0,\"in_list_view\":0,\"fetch_if_empty\":0,\"in_filter\":0,\"remember_last_selected_value\":0,\"ignore_xss_filter\":0,\"print_hide_if_no_value\":0,\"allow_bulk_edit\":0,\"in_standard_filter\":0,\"in_preview\":0,\"read_only\":0,\"precision\":\"\",\"length\":0,\"translatable\":0,\"doctype\":\"DocField\"},{\"name\":\"37a00a16a4\",\"creation\":\"2020-06-09 15:36:17.276533\",\"modified\":\"2020-07-15 12:03:16.481777\",\"modified_by\":\"works@f9tech.com\",\"owner\":\"works@f9tech.com\",\"docstatus\":0,\"parent\":\"BGL Stock Entry Level\",\"parentfield\":\"fields\",\"parenttype\":\"DocType\",\"idx\":4,\"fieldname\":\"column_break_3\",\"fieldtype\":\"Column Break\",\"search_index\":0,\"hidden\":0,\"set_only_once\":0,\"allow_in_quick_entry\":0,\"print_hide\":0,\"report_hide\":0,\"reqd\":0,\"bold\":0,\"in_global_search\":0,\"collapsible\":0,\"unique\":0,\"no_copy\":0,\"allow_on_submit\":0,\"show_preview_popup\":0,\"permlevel\":0,\"ignore_user_permissions\":0,\"columns\":0,\"in_list_view\":0,\"fetch_if_empty\":0,\"in_filter\":0,\"remember_last_selected_value\":0,\"ignore_xss_filter\":0,\"print_hide_if_no_value\":0,\"allow_bulk_edit\":0,\"in_standard_filter\":0,\"in_preview\":0,\"read_only\":0,\"precision\":\"\",\"length\":0,\"translatable\":0,\"doctype\":\"DocField\"},{\"name\":\"7cbbf3b7b6\",\"creation\":\"2020-06-09 15:36:17.276533\",\"modified\":\"2020-07-15 12:03:16.481777\",\"modified_by\":\"works@f9tech.com\",\"owner\":\"works@f9tech.com\",\"docstatus\":0,\"parent\":\"BGL Stock Entry Level\",\"parentfield\":\"fields\",\"parenttype\":\"DocType\",\"idx\":5,\"fieldname\":\"vendor\",\"label\":\"Vendor\",\"fieldtype\":\"Link\",\"options\":\"Supplier\",\"search_index\":0,\"hidden\":0,\"set_only_once\":0,\"allow_in_quick_entry\":0,\"print_hide\":0,\"report_hide\":0,\"reqd\":0,\"bold\":0,\"in_global_search\":0,\"collapsible\":0,\"unique\":0,\"no_copy\":0,\"allow_on_submit\":0,\"show_preview_popup\":0,\"permlevel\":0,\"ignore_user_permissions\":0,\"columns\":0,\"in_list_view\":0,\"fetch_if_empty\":0,\"in_filter\":0,\"remember_last_selected_value\":0,\"ignore_xss_filter\":0,\"print_hide_if_no_value\":0,\"allow_bulk_edit\":0,\"in_standard_filter\":0,\"in_preview\":0,\"read_only\":0,\"precision\":\"\",\"length\":0,\"translatable\":0,\"doctype\":\"DocField\"},{\"name\":\"b456ce2c96\",\"creation\":\"2020-06-09 15:36:17.276533\",\"modified\":\"2020-07-15 12:03:16.481777\",\"modified_by\":\"works@f9tech.com\",\"owner\":\"works@f9tech.com\",\"docstatus\":0,\"parent\":\"BGL Stock Entry Level\",\"parentfield\":\"fields\",\"parenttype\":\"DocType\",\"idx\":6,\"fieldname\":\"supplier_group\",\"label\":\"Vendor Type\",\"fieldtype\":\"Data\",\"search_index\":0,\"hidden\":0,\"set_only_once\":0,\"allow_in_quick_entry\":0,\"print_hide\":0,\"report_hide\":0,\"reqd\":0,\"bold\":0,\"in_global_search\":0,\"collapsible\":0,\"unique\":0,\"no_copy\":0,\"allow_on_submit\":0,\"show_preview_popup\":0,\"permlevel\":0,\"ignore_user_permissions\":0,\"columns\":0,\"in_list_view\":0,\"fetch_if_empty\":0,\"in_filter\":0,\"remember_last_selected_value\":0,\"ignore_xss_filter\":0,\"print_hide_if_no_value\":0,\"allow_bulk_edit\":0,\"in_standard_filter\":0,\"in_preview\":0,\"read_only\":0,\"precision\":\"\",\"length\":0,\"translatable\":0,\"fetch_from\":\"\",\"doctype\":\"DocField\"},{\"name\":\"4c56c659da\",\"creation\":\"2020-06-09 15:36:17.276533\",\"modified\":\"2020-07-15 12:03:16.481777\",\"modified_by\":\"works@f9tech.com\",\"owner\":\"works@f9tech.com\",\"docstatus\":0,\"parent\":\"BGL Stock Entry Level\",\"parentfield\":\"fields\",\"parenttype\":\"DocType\",\"idx\":7,\"fieldname\":\"section_break_1\",\"fieldtype\":\"Section Break\",\"search_index\":0,\"hidden\":0,\"set_only_once\":0,\"allow_in_quick_entry\":0,\"print_hide\":0,\"report_hide\":0,\"reqd\":0,\"bold\":0,\"in_global_search\":0,\"collapsible\":0,\"unique\":0,\"no_copy\":0,\"allow_on_submit\":0,\"show_preview_popup\":0,\"permlevel\":0,\"ignore_user_permissions\":0,\"columns\":0,\"in_list_view\":0,\"fetch_if_empty\":0,\"in_filter\":0,\"remember_last_selected_value\":0,\"ignore_xss_filter\":0,\"print_hide_if_no_value\":0,\"allow_bulk_edit\":0,\"in_standard_filter\":0,\"in_preview\":0,\"read_only\":0,\"precision\":\"\",\"length\":0,\"translatable\":0,\"doctype\":\"DocField\"},{\"name\":\"401a81a6be\",\"creation\":\"2020-06-09 15:36:17.276533\",\"modified\":\"2020-07-15 12:03:16.481777\",\"modified_by\":\"works@f9tech.com\",\"owner\":\"works@f9tech.com\",\"docstatus\":0,\"parent\":\"BGL Stock Entry Level\",\"parentfield\":\"fields\",\"parenttype\":\"DocType\",\"idx\":8,\"fieldname\":\"items\",\"label\":\"Items\",\"fieldtype\":\"Table\",\"options\":\"BGL Item\",\"search_index\":0,\"hidden\":0,\"set_only_once\":0,\"allow_in_quick_entry\":0,\"print_hide\":0,\"report_hide\":0,\"reqd\":0,\"bold\":0,\"in_global_search\":0,\"collapsible\":0,\"unique\":0,\"no_copy\":0,\"allow_on_submit\":0,\"show_preview_popup\":0,\"permlevel\":0,\"ignore_user_permissions\":0,\"columns\":0,\"in_list_view\":0,\"fetch_if_empty\":0,\"in_filter\":0,\"remember_last_selected_value\":0,\"ignore_xss_filter\":0,\"print_hide_if_no_value\":0,\"allow_bulk_edit\":0,\"in_standard_filter\":0,\"in_preview\":0,\"read_only\":0,\"precision\":\"\",\"length\":0,\"translatable\":0,\"fetch_from\":\"BGL Item\",\"doctype\":\"DocField\"},{\"name\":\"1a0fa61fb5\",\"creation\":\"2020-06-09 15:36:17.276533\",\"modified\":\"2020-07-15 12:03:16.481777\",\"modified_by\":\"works@f9tech.com\",\"owner\":\"works@f9tech.com\",\"docstatus\":0,\"parent\":\"BGL Stock Entry Level\",\"parentfield\":\"fields\",\"parenttype\":\"DocType\",\"idx\":9,\"fieldname\":\"section_break_7\",\"fieldtype\":\"Section Break\",\"search_index\":0,\"hidden\":0,\"set_only_once\":0,\"allow_in_quick_entry\":0,\"print_hide\":0,\"report_hide\":0,\"reqd\":0,\"bold\":0,\"in_global_search\":0,\"collapsible\":0,\"unique\":0,\"no_copy\":0,\"allow_on_submit\":0,\"show_preview_popup\":0,\"permlevel\":0,\"ignore_user_permissions\":0,\"columns\":0,\"in_list_view\":0,\"fetch_if_empty\":0,\"in_filter\":0,\"remember_last_selected_value\":0,\"ignore_xss_filter\":0,\"print_hide_if_no_value\":0,\"allow_bulk_edit\":0,\"in_standard_filter\":0,\"in_preview\":0,\"read_only\":0,\"precision\":\"\",\"length\":0,\"translatable\":0,\"doctype\":\"DocField\"},{\"name\":\"322e44ca48\",\"creation\":\"2020-06-09 15:36:17.276533\",\"modified\":\"2020-07-15 12:03:16.481777\",\"modified_by\":\"works@f9tech.com\",\"owner\":\"works@f9tech.com\",\"docstatus\":0,\"parent\":\"BGL Stock Entry Level\",\"parentfield\":\"fields\",\"parenttype\":\"DocType\",\"idx\":10,\"fieldname\":\"total_qty\",\"label\":\"Total Qty\",\"fieldtype\":\"Data\",\"search_index\":0,\"hidden\":0,\"set_only_once\":0,\"allow_in_quick_entry\":0,\"print_hide\":0,\"report_hide\":0,\"reqd\":0,\"bold\":0,\"in_global_search\":0,\"collapsible\":0,\"unique\":0,\"no_copy\":0,\"allow_on_submit\":0,\"show_preview_popup\":0,\"permlevel\":0,\"ignore_user_permissions\":0,\"columns\":0,\"in_list_view\":0,\"fetch_if_empty\":0,\"in_filter\":0,\"remember_last_selected_value\":0,\"ignore_xss_filter\":0,\"print_hide_if_no_value\":0,\"allow_bulk_edit\":0,\"in_standard_filter\":0,\"in_preview\":0,\"read_only\":0,\"precision\":\"\",\"length\":0,\"translatable\":0,\"doctype\":\"DocField\"},{\"name\":\"fcff5a8730\",\"creation\":\"2020-06-09 15:36:17.276533\",\"modified\":\"2020-07-15 12:03:16.481777\",\"modified_by\":\"works@f9tech.com\",\"owner\":\"works@f9tech.com\",\"docstatus\":0,\"parent\":\"BGL Stock Entry Level\",\"parentfield\":\"fields\",\"parenttype\":\"DocType\",\"idx\":11,\"fieldname\":\"column_break_8\",\"fieldtype\":\"Column Break\",\"search_index\":0,\"hidden\":0,\"set_only_once\":0,\"allow_in_quick_entry\":0,\"print_hide\":0,\"report_hide\":0,\"reqd\":0,\"bold\":0,\"in_global_search\":0,\"collapsible\":0,\"unique\":0,\"no_copy\":0,\"allow_on_submit\":0,\"show_preview_popup\":0,\"permlevel\":0,\"ignore_user_permissions\":0,\"columns\":0,\"in_list_view\":0,\"fetch_if_empty\":0,\"in_filter\":0,\"remember_last_selected_value\":0,\"ignore_xss_filter\":0,\"print_hide_if_no_value\":0,\"allow_bulk_edit\":0,\"in_standard_filter\":0,\"in_preview\":0,\"read_only\":0,\"precision\":\"\",\"length\":0,\"translatable\":0,\"doctype\":\"DocField\"},{\"name\":\"fde13d5c92\",\"creation\":\"2020-06-09 15:36:17.276533\",\"modified\":\"2020-07-15 12:03:16.481777\",\"modified_by\":\"works@f9tech.com\",\"owner\":\"works@f9tech.com\",\"docstatus\":0,\"parent\":\"BGL Stock Entry Level\",\"parentfield\":\"fields\",\"parenttype\":\"DocType\",\"idx\":12,\"fieldname\":\"total_len\",\"label\":\"Total Length\",\"fieldtype\":\"Data\",\"search_index\":0,\"hidden\":0,\"set_only_once\":0,\"allow_in_quick_entry\":0,\"print_hide\":0,\"report_hide\":0,\"reqd\":0,\"bold\":0,\"in_global_search\":0,\"collapsible\":0,\"unique\":0,\"no_copy\":0,\"allow_on_submit\":0,\"show_preview_popup\":0,\"permlevel\":0,\"ignore_user_permissions\":0,\"columns\":0,\"in_list_view\":0,\"fetch_if_empty\":0,\"in_filter\":0,\"remember_last_selected_value\":0,\"ignore_xss_filter\":0,\"print_hide_if_no_value\":0,\"allow_bulk_edit\":0,\"in_standard_filter\":0,\"in_preview\":0,\"read_only\":0,\"precision\":\"\",\"length\":0,\"translatable\":0,\"doctype\":\"DocField\"},{\"name\":\"0b1b3001a7\",\"creation\":\"2020-06-09 15:36:17.276533\",\"modified\":\"2020-07-15 12:03:16.481777\",\"modified_by\":\"works@f9tech.com\",\"owner\":\"works@f9tech.com\",\"docstatus\":0,\"parent\":\"BGL Stock Entry Level\",\"parentfield\":\"fields\",\"parenttype\":\"DocType\",\"idx\":13,\"fieldname\":\"total_amt\",\"label\":\"Total Price\",\"fieldtype\":\"Data\",\"search_index\":0,\"hidden\":0,\"set_only_once\":0,\"allow_in_quick_entry\":0,\"print_hide\":0,\"report_hide\":0,\"reqd\":0,\"bold\":0,\"in_global_search\":0,\"collapsible\":0,\"unique\":0,\"no_copy\":0,\"allow_on_submit\":0,\"show_preview_popup\":0,\"permlevel\":0,\"ignore_user_permissions\":0,\"columns\":0,\"in_list_view\":0,\"fetch_if_empty\":0,\"in_filter\":0,\"remember_last_selected_value\":0,\"ignore_xss_filter\":0,\"print_hide_if_no_value\":0,\"allow_bulk_edit\":0,\"in_standard_filter\":0,\"in_preview\":0,\"read_only\":0,\"precision\":\"\",\"length\":0,\"translatable\":0,\"doctype\":\"DocField\"},{\"name\":\"4b1e6fdf52\",\"creation\":\"2020-06-09 15:36:17.276533\",\"modified\":\"2020-07-15 12:03:16.481777\",\"modified_by\":\"works@f9tech.com\",\"owner\":\"works@f9tech.com\",\"docstatus\":0,\"parent\":\"BGL Stock Entry Level\",\"parentfield\":\"fields\",\"parenttype\":\"DocType\",\"idx\":14,\"fieldname\":\"total_tax_section\",\"label\":\"Total Tax\",\"fieldtype\":\"Section Break\",\"search_index\":0,\"hidden\":0,\"set_only_once\":0,\"allow_in_quick_entry\":0,\"print_hide\":0,\"report_hide\":0,\"reqd\":0,\"bold\":0,\"in_global_search\":0,\"collapsible\":0,\"unique\":0,\"no_copy\":0,\"allow_on_submit\":0,\"show_preview_popup\":0,\"permlevel\":0,\"ignore_user_permissions\":0,\"columns\":0,\"in_list_view\":0,\"fetch_if_empty\":0,\"in_filter\":0,\"remember_last_selected_value\":0,\"ignore_xss_filter\":0,\"print_hide_if_no_value\":0,\"allow_bulk_edit\":0,\"in_standard_filter\":0,\"in_preview\":0,\"read_only\":0,\"precision\":\"\",\"length\":0,\"translatable\":0,\"doctype\":\"DocField\"},{\"name\":\"9b86587b7c\",\"creation\":\"2020-06-09 15:36:17.276533\",\"modified\":\"2020-07-15 12:03:16.481777\",\"modified_by\":\"works@f9tech.com\",\"owner\":\"works@f9tech.com\",\"docstatus\":0,\"parent\":\"BGL Stock Entry Level\",\"parentfield\":\"fields\",\"parenttype\":\"DocType\",\"idx\":15,\"fieldname\":\"total_input_tax\",\"label\":\"Total Input Tax\",\"fieldtype\":\"Data\",\"search_index\":0,\"hidden\":0,\"set_only_once\":0,\"allow_in_quick_entry\":0,\"print_hide\":0,\"report_hide\":0,\"reqd\":0,\"bold\":0,\"in_global_search\":0,\"collapsible\":0,\"unique\":0,\"no_copy\":0,\"allow_on_submit\":0,\"show_preview_popup\":0,\"permlevel\":0,\"ignore_user_permissions\":0,\"columns\":0,\"in_list_view\":0,\"fetch_if_empty\":0,\"in_filter\":0,\"remember_last_selected_value\":0,\"ignore_xss_filter\":0,\"print_hide_if_no_value\":0,\"allow_bulk_edit\":0,\"in_standard_filter\":0,\"in_preview\":0,\"read_only\":0,\"precision\":\"\",\"length\":0,\"translatable\":0,\"doctype\":\"DocField\"},{\"name\":\"f35deec9c6\",\"creation\":\"2020-06-09 15:36:17.276533\",\"modified\":\"2020-07-15 12:03:16.481777\",\"modified_by\":\"works@f9tech.com\",\"owner\":\"works@f9tech.com\",\"docstatus\":0,\"parent\":\"BGL Stock Entry Level\",\"parentfield\":\"fields\",\"parenttype\":\"DocType\",\"idx\":16,\"fieldname\":\"tit_column\",\"label\":\"\",\"fieldtype\":\"Column Break\",\"search_index\":0,\"hidden\":0,\"set_only_once\":0,\"allow_in_quick_entry\":0,\"print_hide\":0,\"report_hide\":0,\"reqd\":0,\"bold\":0,\"in_global_search\":0,\"collapsible\":0,\"unique\":0,\"no_copy\":0,\"allow_on_submit\":0,\"show_preview_popup\":0,\"permlevel\":0,\"ignore_user_permissions\":0,\"columns\":0,\"in_list_view\":0,\"fetch_if_empty\":0,\"in_filter\":0,\"remember_last_selected_value\":0,\"ignore_xss_filter\":0,\"print_hide_if_no_value\":0,\"allow_bulk_edit\":0,\"in_standard_filter\":0,\"in_preview\":0,\"read_only\":0,\"precision\":\"\",\"length\":0,\"translatable\":0,\"doctype\":\"DocField\"},{\"name\":\"b1eb23d0ac\",\"creation\":\"2020-06-09 15:36:17.276533\",\"modified\":\"2020-07-15 12:03:16.481777\",\"modified_by\":\"works@f9tech.com\",\"owner\":\"works@f9tech.com\",\"docstatus\":0,\"parent\":\"BGL Stock Entry Level\",\"parentfield\":\"fields\",\"parenttype\":\"DocType\",\"idx\":17,\"fieldname\":\"total_output_tax\",\"label\":\"Total Output Tax\",\"fieldtype\":\"Data\",\"search_index\":0,\"hidden\":0,\"set_only_once\":0,\"allow_in_quick_entry\":0,\"print_hide\":0,\"report_hide\":0,\"reqd\":0,\"bold\":0,\"in_global_search\":0,\"collapsible\":0,\"unique\":0,\"no_copy\":0,\"allow_on_submit\":0,\"show_preview_popup\":0,\"permlevel\":0,\"ignore_user_permissions\":0,\"columns\":0,\"in_list_view\":0,\"fetch_if_empty\":0,\"in_filter\":0,\"remember_last_selected_value\":0,\"ignore_xss_filter\":0,\"print_hide_if_no_value\":0,\"allow_bulk_edit\":0,\"in_standard_filter\":0,\"in_preview\":0,\"read_only\":0,\"precision\":\"\",\"length\":0,\"translatable\":0,\"doctype\":\"DocField\"},{\"name\":\"661b1e1e05\",\"creation\":\"2020-06-09 15:36:17.276533\",\"modified\":\"2020-07-15 12:03:16.481777\",\"modified_by\":\"works@f9tech.com\",\"owner\":\"works@f9tech.com\",\"docstatus\":0,\"parent\":\"BGL Stock Entry Level\",\"parentfield\":\"fields\",\"parenttype\":\"DocType\",\"idx\":18,\"fieldname\":\"difference_section\",\"label\":\"Difference\",\"fieldtype\":\"Section Break\",\"search_index\":0,\"hidden\":0,\"set_only_once\":0,\"allow_in_quick_entry\":0,\"print_hide\":0,\"report_hide\":0,\"reqd\":0,\"bold\":0,\"in_global_search\":0,\"collapsible\":0,\"unique\":0,\"no_copy\":0,\"allow_on_submit\":0,\"show_preview_popup\":0,\"permlevel\":0,\"ignore_user_permissions\":0,\"columns\":0,\"in_list_view\":0,\"fetch_if_empty\":0,\"in_filter\":0,\"remember_last_selected_value\":0,\"ignore_xss_filter\":0,\"print_hide_if_no_value\":0,\"allow_bulk_edit\":0,\"in_standard_filter\":0,\"in_preview\":0,\"read_only\":0,\"precision\":\"\",\"length\":0,\"translatable\":0,\"doctype\":\"DocField\"},{\"name\":\"5f5541ed65\",\"creation\":\"2020-06-09 15:36:17.276533\",\"modified\":\"2020-07-15 12:03:16.481777\",\"modified_by\":\"works@f9tech.com\",\"owner\":\"works@f9tech.com\",\"docstatus\":0,\"parent\":\"BGL Stock Entry Level\",\"parentfield\":\"fields\",\"parenttype\":\"DocType\",\"idx\":19,\"fieldname\":\"total_ord\",\"label\":\"Total Ordered\",\"fieldtype\":\"Data\",\"search_index\":0,\"hidden\":0,\"set_only_once\":0,\"allow_in_quick_entry\":0,\"print_hide\":0,\"report_hide\":0,\"reqd\":0,\"bold\":0,\"in_global_search\":0,\"collapsible\":0,\"unique\":0,\"no_copy\":0,\"allow_on_submit\":0,\"show_preview_popup\":0,\"permlevel\":0,\"ignore_user_permissions\":0,\"columns\":0,\"in_list_view\":0,\"fetch_if_empty\":0,\"in_filter\":0,\"remember_last_selected_value\":0,\"ignore_xss_filter\":0,\"print_hide_if_no_value\":0,\"allow_bulk_edit\":0,\"in_standard_filter\":0,\"in_preview\":0,\"read_only\":0,\"precision\":\"\",\"length\":0,\"translatable\":0,\"doctype\":\"DocField\"},{\"name\":\"f6e10ea1cf\",\"creation\":\"2020-06-09 15:36:17.276533\",\"modified\":\"2020-07-15 12:03:16.481777\",\"modified_by\":\"works@f9tech.com\",\"owner\":\"works@f9tech.com\",\"docstatus\":0,\"parent\":\"BGL Stock Entry Level\",\"parentfield\":\"fields\",\"parenttype\":\"DocType\",\"idx\":20,\"fieldname\":\"total_rcvd\",\"label\":\"Total Received\",\"fieldtype\":\"Data\",\"search_index\":0,\"hidden\":0,\"set_only_once\":0,\"allow_in_quick_entry\":0,\"print_hide\":0,\"report_hide\":0,\"reqd\":0,\"bold\":0,\"in_global_search\":0,\"collapsible\":0,\"unique\":0,\"no_copy\":0,\"allow_on_submit\":0,\"show_preview_popup\":0,\"permlevel\":0,\"ignore_user_permissions\":0,\"columns\":0,\"in_list_view\":0,\"fetch_if_empty\":0,\"in_filter\":0,\"remember_last_selected_value\":0,\"ignore_xss_filter\":0,\"print_hide_if_no_value\":0,\"allow_bulk_edit\":0,\"in_standard_filter\":0,\"in_preview\":0,\"read_only\":0,\"precision\":\"\",\"length\":0,\"translatable\":0,\"doctype\":\"DocField\"},{\"name\":\"1b0db917cb\",\"creation\":\"2020-06-09 15:36:17.276533\",\"modified\":\"2020-07-15 12:03:16.481777\",\"modified_by\":\"works@f9tech.com\",\"owner\":\"works@f9tech.com\",\"docstatus\":0,\"parent\":\"BGL Stock Entry Level\",\"parentfield\":\"fields\",\"parenttype\":\"DocType\",\"idx\":21,\"fieldname\":\"column_break_13\",\"fieldtype\":\"Column Break\",\"search_index\":0,\"hidden\":0,\"set_only_once\":0,\"allow_in_quick_entry\":0,\"print_hide\":0,\"report_hide\":0,\"reqd\":0,\"bold\":0,\"in_global_search\":0,\"collapsible\":0,\"unique\":0,\"no_copy\":0,\"allow_on_submit\":0,\"show_preview_popup\":0,\"permlevel\":0,\"ignore_user_permissions\":0,\"columns\":0,\"in_list_view\":0,\"fetch_if_empty\":0,\"in_filter\":0,\"remember_last_selected_value\":0,\"ignore_xss_filter\":0,\"print_hide_if_no_value\":0,\"allow_bulk_edit\":0,\"in_standard_filter\":0,\"in_preview\":0,\"read_only\":0,\"precision\":\"\",\"length\":0,\"translatable\":0,\"doctype\":\"DocField\"},{\"name\":\"752401e99c\",\"creation\":\"2020-06-09 15:36:17.276533\",\"modified\":\"2020-07-15 12:03:16.481777\",\"modified_by\":\"works@f9tech.com\",\"owner\":\"works@f9tech.com\",\"docstatus\":0,\"parent\":\"BGL Stock Entry Level\",\"parentfield\":\"fields\",\"parenttype\":\"DocType\",\"idx\":22,\"fieldname\":\"total_diff\",\"label\":\"Total Difference\",\"fieldtype\":\"Data\",\"search_index\":0,\"hidden\":0,\"set_only_once\":0,\"allow_in_quick_entry\":0,\"print_hide\":0,\"report_hide\":0,\"reqd\":0,\"bold\":0,\"in_global_search\":0,\"collapsible\":0,\"unique\":0,\"no_copy\":0,\"allow_on_submit\":0,\"show_preview_popup\":0,\"permlevel\":0,\"ignore_user_permissions\":0,\"columns\":0,\"in_list_view\":0,\"fetch_if_empty\":0,\"in_filter\":0,\"remember_last_selected_value\":0,\"ignore_xss_filter\":0,\"print_hide_if_no_value\":0,\"allow_bulk_edit\":0,\"in_standard_filter\":0,\"in_preview\":0,\"read_only\":0,\"precision\":\"\",\"length\":0,\"translatable\":0,\"doctype\":\"DocField\"},{\"name\":\"ad1b2c3315\",\"creation\":\"2020-06-09 15:36:17.276533\",\"modified\":\"2020-07-15 12:03:16.481777\",\"modified_by\":\"works@f9tech.com\",\"owner\":\"works@f9tech.com\",\"docstatus\":0,\"parent\":\"BGL Stock Entry Level\",\"parentfield\":\"fields\",\"parenttype\":\"DocType\",\"idx\":23,\"fieldname\":\"margin__section\",\"label\":\"Margin %\",\"fieldtype\":\"Section Break\",\"search_index\":0,\"hidden\":0,\"set_only_once\":0,\"allow_in_quick_entry\":0,\"print_hide\":0,\"report_hide\":0,\"reqd\":0,\"bold\":0,\"in_global_search\":0,\"collapsible\":0,\"unique\":0,\"no_copy\":0,\"allow_on_submit\":0,\"show_preview_popup\":0,\"permlevel\":0,\"ignore_user_permissions\":0,\"columns\":0,\"in_list_view\":0,\"fetch_if_empty\":0,\"in_filter\":0,\"remember_last_selected_value\":0,\"ignore_xss_filter\":0,\"print_hide_if_no_value\":0,\"allow_bulk_edit\":0,\"in_standard_filter\":0,\"in_preview\":0,\"read_only\":0,\"precision\":\"\",\"length\":0,\"translatable\":0,\"doctype\":\"DocField\"},{\"name\":\"610415b65b\",\"creation\":\"2020-06-09 15:36:17.276533\",\"modified\":\"2020-07-15 12:03:16.481777\",\"modified_by\":\"works@f9tech.com\",\"owner\":\"works@f9tech.com\",\"docstatus\":0,\"parent\":\"BGL Stock Entry Level\",\"parentfield\":\"fields\",\"parenttype\":\"DocType\",\"idx\":24,\"fieldname\":\"cost\",\"label\":\"Cost Value\",\"fieldtype\":\"Data\",\"search_index\":0,\"hidden\":0,\"set_only_once\":0,\"allow_in_quick_entry\":0,\"print_hide\":0,\"report_hide\":0,\"reqd\":0,\"bold\":0,\"in_global_search\":0,\"collapsible\":0,\"unique\":0,\"no_copy\":0,\"allow_on_submit\":0,\"show_preview_popup\":0,\"permlevel\":0,\"ignore_user_permissions\":0,\"columns\":0,\"in_list_view\":0,\"fetch_if_empty\":0,\"in_filter\":0,\"remember_last_selected_value\":0,\"ignore_xss_filter\":0,\"print_hide_if_no_value\":0,\"allow_bulk_edit\":0,\"in_standard_filter\":0,\"in_preview\":0,\"read_only\":0,\"precision\":\"\",\"length\":0,\"translatable\":0,\"doctype\":\"DocField\"},{\"name\":\"e82a5172ea\",\"creation\":\"2020-06-09 15:36:17.276533\",\"modified\":\"2020-07-15 12:03:16.481777\",\"modified_by\":\"works@f9tech.com\",\"owner\":\"works@f9tech.com\",\"docstatus\":0,\"parent\":\"BGL Stock Entry Level\",\"parentfield\":\"fields\",\"parenttype\":\"DocType\",\"idx\":25,\"fieldname\":\"sale\",\"label\":\"Sale Value\",\"fieldtype\":\"Data\",\"search_index\":0,\"hidden\":0,\"set_only_once\":0,\"allow_in_quick_entry\":0,\"print_hide\":0,\"report_hide\":0,\"reqd\":0,\"bold\":0,\"in_global_search\":0,\"collapsible\":0,\"unique\":0,\"no_copy\":0,\"allow_on_submit\":0,\"show_preview_popup\":0,\"permlevel\":0,\"ignore_user_permissions\":0,\"columns\":0,\"in_list_view\":0,\"fetch_if_empty\":0,\"in_filter\":0,\"remember_last_selected_value\":0,\"ignore_xss_filter\":0,\"print_hide_if_no_value\":0,\"allow_bulk_edit\":0,\"in_standard_filter\":0,\"in_preview\":0,\"read_only\":0,\"precision\":\"\",\"length\":0,\"translatable\":0,\"doctype\":\"DocField\"},{\"name\":\"0fcbd39783\",\"creation\":\"2020-06-09 15:36:17.276533\",\"modified\":\"2020-07-15 12:03:16.481777\",\"modified_by\":\"works@f9tech.com\",\"owner\":\"works@f9tech.com\",\"docstatus\":0,\"parent\":\"BGL Stock Entry Level\",\"parentfield\":\"fields\",\"parenttype\":\"DocType\",\"idx\":26,\"fieldname\":\"column_break_15\",\"fieldtype\":\"Column Break\",\"search_index\":0,\"hidden\":0,\"set_only_once\":0,\"allow_in_quick_entry\":0,\"print_hide\":0,\"report_hide\":0,\"reqd\":0,\"bold\":0,\"in_global_search\":0,\"collapsible\":0,\"unique\":0,\"no_copy\":0,\"allow_on_submit\":0,\"show_preview_popup\":0,\"permlevel\":0,\"ignore_user_permissions\":0,\"columns\":0,\"in_list_view\":0,\"fetch_if_empty\":0,\"in_filter\":0,\"remember_last_selected_value\":0,\"ignore_xss_filter\":0,\"print_hide_if_no_value\":0,\"allow_bulk_edit\":0,\"in_standard_filter\":0,\"in_preview\":0,\"read_only\":0,\"precision\":\"\",\"length\":0,\"translatable\":0,\"doctype\":\"DocField\"},{\"name\":\"1e5eac85d8\",\"creation\":\"2020-06-09 15:36:17.276533\",\"modified\":\"2020-07-15 12:03:16.481777\",\"modified_by\":\"works@f9tech.com\",\"owner\":\"works@f9tech.com\",\"docstatus\":0,\"parent\":\"BGL Stock Entry Level\",\"parentfield\":\"fields\",\"parenttype\":\"DocType\",\"idx\":27,\"fieldname\":\"margin_value\",\"label\":\"Magin %\",\"fieldtype\":\"Data\",\"search_index\":0,\"hidden\":0,\"set_only_once\":0,\"allow_in_quick_entry\":0,\"print_hide\":0,\"report_hide\":0,\"reqd\":0,\"bold\":0,\"in_global_search\":0,\"collapsible\":0,\"unique\":0,\"no_copy\":0,\"allow_on_submit\":0,\"show_preview_popup\":0,\"permlevel\":0,\"ignore_user_permissions\":0,\"columns\":0,\"in_list_view\":0,\"fetch_if_empty\":0,\"in_filter\":0,\"remember_last_selected_value\":0,\"ignore_xss_filter\":0,\"print_hide_if_no_value\":0,\"allow_bulk_edit\":0,\"in_standard_filter\":0,\"in_preview\":0,\"read_only\":0,\"precision\":\"\",\"length\":0,\"translatable\":0,\"doctype\":\"DocField\"},{\"name\":\"0b0136c5a1\",\"creation\":\"2020-06-14 09:33:05.691750\",\"modified\":\"2020-07-15 12:03:16.481777\",\"modified_by\":\"works@f9tech.com\",\"owner\":\"works@f9tech.com\",\"docstatus\":0,\"parent\":\"BGL Stock Entry Level\",\"parentfield\":\"fields\",\"parenttype\":\"DocType\",\"idx\":28,\"fieldname\":\"amended_from\",\"label\":\"Amended From\",\"fieldtype\":\"Link\",\"options\":\"BGL Stock Entry Level\",\"search_index\":0,\"hidden\":0,\"set_only_once\":0,\"allow_in_quick_entry\":0,\"print_hide\":1,\"report_hide\":0,\"reqd\":0,\"bold\":0,\"in_global_search\":0,\"collapsible\":0,\"unique\":0,\"no_copy\":1,\"allow_on_submit\":0,\"show_preview_popup\":0,\"permlevel\":0,\"ignore_user_permissions\":0,\"columns\":0,\"in_list_view\":0,\"fetch_if_empty\":0,\"in_filter\":0,\"remember_last_selected_value\":0,\"ignore_xss_filter\":0,\"print_hide_if_no_value\":0,\"allow_bulk_edit\":0,\"in_standard_filter\":0,\"in_preview\":0,\"read_only\":1,\"length\":0,\"translatable\":0,\"doctype\":\"DocField\"},{\"name\":\"bf76afca32\",\"creation\":\"2020-06-09 15:36:17.276533\",\"modified\":\"2020-07-15 12:03:16.481777\",\"modified_by\":\"works@f9tech.com\",\"owner\":\"works@f9tech.com\",\"docstatus\":0,\"parent\":\"BGL Stock Entry Level\",\"parentfield\":\"fields\",\"parenttype\":\"DocType\",\"idx\":29,\"fieldname\":\"has_select\",\"label\":\"Select\",\"fieldtype\":\"Check\",\"options\":\"\",\"search_index\":0,\"hidden\":0,\"set_only_once\":0,\"allow_in_quick_entry\":0,\"print_hide\":0,\"report_hide\":0,\"reqd\":0,\"bold\":0,\"in_global_search\":0,\"collapsible\":0,\"unique\":0,\"no_copy\":0,\"allow_on_submit\":0,\"show_preview_popup\":0,\"permlevel\":0,\"ignore_user_permissions\":0,\"columns\":0,\"default\":\"0\",\"in_list_view\":0,\"fetch_if_empty\":0,\"in_filter\":0,\"remember_last_selected_value\":0,\"ignore_xss_filter\":0,\"print_hide_if_no_value\":0,\"allow_bulk_edit\":0,\"in_standard_filter\":0,\"in_preview\":0,\"read_only\":0,\"precision\":\"\",\"length\":0,\"translatable\":0,\"doctype\":\"DocField\"},{\"name\":\"e5e61ccf0a\",\"creation\":\"2020-06-09 15:36:17.276533\",\"modified\":\"2020-07-15 12:03:16.481777\",\"modified_by\":\"works@f9tech.com\",\"owner\":\"works@f9tech.com\",\"docstatus\":0,\"parent\":\"BGL Stock Entry Level\",\"parentfield\":\"fields\",\"parenttype\":\"DocType\",\"idx\":30,\"fieldname\":\"date\",\"label\":\"Data\",\"fieldtype\":\"Data\",\"search_index\":0,\"hidden\":0,\"set_only_once\":0,\"allow_in_quick_entry\":0,\"print_hide\":0,\"report_hide\":0,\"reqd\":0,\"bold\":0,\"in_global_search\":0,\"collapsible\":0,\"unique\":0,\"no_copy\":0,\"allow_on_submit\":0,\"show_preview_popup\":0,\"depends_on\":\"eval:doc.has_select==1\",\"permlevel\":0,\"ignore_user_permissions\":0,\"columns\":0,\"in_list_view\":0,\"fetch_if_empty\":0,\"in_filter\":0,\"remember_last_selected_value\":0,\"ignore_xss_filter\":0,\"print_hide_if_no_value\":0,\"allow_bulk_edit\":0,\"in_standard_filter\":0,\"in_preview\":0,\"read_only\":0,\"precision\":\"\",\"length\":0,\"translatable\":0,\"doctype\":\"DocField\"}],\"permissions\":[{\"name\":\"bd6cb01515\",\"creation\":\"2020-06-09 15:36:17.276533\",\"modified\":\"2020-07-15 12:03:16.481777\",\"modified_by\":\"works@f9tech.com\",\"owner\":\"works@f9tech.com\",\"docstatus\":0,\"parent\":\"BGL Stock Entry Level\",\"parentfield\":\"permissions\",\"parenttype\":\"DocType\",\"idx\":1,\"permlevel\":0,\"role\":\"System Manager\",\"read\":1,\"write\":1,\"create\":1,\"submit\":0,\"cancel\":0,\"delete\":1,\"amend\":0,\"report\":1,\"export\":1,\"import\":0,\"share\":1,\"print\":1,\"email\":1,\"if_owner\":0,\"set_user_permissions\":0,\"doctype\":\"DocPerm\"}],\"__last_sync_on\":\"2020-07-15T06:35:04.713Z\",\"__unsaved\":1}"
}
Request Error
Traceback (most recent call last):
  File "/home/frappe/frappe-bench/apps/frappe/frappe/app.py", line 60, in application
    response = frappe.api.handle()
  File "/home/frappe/frappe-bench/apps/frappe/frappe/api.py", line 55, in handle
    return frappe.handler.handle()
  File "/home/frappe/frappe-bench/apps/frappe/frappe/handler.py", line 22, in handle
    data = execute_cmd(cmd)
  File "/home/frappe/frappe-bench/apps/frappe/frappe/handler.py", line 61, in execute_cmd
    return frappe.call(method, **frappe.form_dict)
  File "/home/frappe/frappe-bench/apps/frappe/frappe/__init__.py", line 1051, in call
    return fn(*args, **newargs)
  File "/home/frappe/frappe-bench/apps/frappe/frappe/desk/form/save.py", line 22, in savedocs
    doc.save()
  File "/home/frappe/frappe-bench/apps/frappe/frappe/model/document.py", line 273, in save
    return self._save(*args, **kwargs)
  File "/home/frappe/frappe-bench/apps/frappe/frappe/model/document.py", line 326, in _save
    self.run_post_save_methods()
  File "/home/frappe/frappe-bench/apps/frappe/frappe/model/document.py", line 926, in run_post_save_methods
    self.run_method("on_update")
  File "/home/frappe/frappe-bench/apps/frappe/frappe/model/document.py", line 794, in run_method
    out = Document.hook(fn)(self, *args, **kwargs)
  File "/home/frappe/frappe-bench/apps/frappe/frappe/model/document.py", line 1065, in composer
    return composed(self, method, *args, **kwargs)
  File "/home/frappe/frappe-bench/apps/frappe/frappe/model/document.py", line 1048, in runner
    add_to_return_value(self, fn(self, *args, **kwargs))
  File "/home/frappe/frappe-bench/apps/frappe/frappe/model/document.py", line 788, in <lambda>
    fn = lambda self, *args, **kwargs: getattr(self, method)(*args, **kwargs)
  File "/home/frappe/frappe-bench/apps/frappe/frappe/core/doctype/doctype/doctype.py", line 281, in on_update
    raise e
  File "/home/frappe/frappe-bench/apps/frappe/frappe/core/doctype/doctype/doctype.py", line 278, in on_update
    frappe.db.updatedb(self.name, self)
  File "/home/frappe/frappe-bench/apps/frappe/frappe/database/mariadb/database.py", line 291, in updatedb
    db_table.sync()
  File "/home/frappe/frappe-bench/apps/frappe/frappe/database/schema.py", line 37, in sync
    self.alter()
  File "/home/frappe/frappe-bench/apps/frappe/frappe/database/mariadb/schema.py", line 86, in alter
    raise e
  File "/home/frappe/frappe-bench/apps/frappe/frappe/database/mariadb/schema.py", line 75, in alter
    frappe.db.sql(query)
  File "/home/frappe/frappe-bench/apps/frappe/frappe/database/database.py", line 171, in sql
    self._cursor.execute(query)
  File "/home/frappe/frappe-bench/env/lib/python3.6/site-packages/pymysql/cursors.py", line 170, in execute
    result = self._query(query)
  File "/home/frappe/frappe-bench/env/lib/python3.6/site-packages/pymysql/cursors.py", line 328, in _query
    conn.query(q)
  File "/home/frappe/frappe-bench/env/lib/python3.6/site-packages/pymysql/connections.py", line 517, in query
    self._affected_rows = self._read_query_result(unbuffered=unbuffered)
  File "/home/frappe/frappe-bench/env/lib/python3.6/site-packages/pymysql/connections.py", line 732, in _read_query_result
    result.read()
  File "/home/frappe/frappe-bench/env/lib/python3.6/site-packages/pymysql/connections.py", line 1075, in read
    first_packet = self.connection._read_packet()
  File "/home/frappe/frappe-bench/env/lib/python3.6/site-packages/pymysql/connections.py", line 684, in _read_packet
    packet.check_error()
  File "/home/frappe/frappe-bench/env/lib/python3.6/site-packages/pymysql/protocol.py", line 220, in check_error
    err.raise_mysql_exception(self._data)
  File "/home/frappe/frappe-bench/env/lib/python3.6/site-packages/pymysql/err.py", line 109, in raise_mysql_exception
    raise errorclass(errno, errval)
pymysql.err.DataError: (1265, "Data truncated for column 'has_select' at row 1")
[ERROR] 2020-07-16 08:18:49,411 | /home/frappe/frappe-bench/apps/frappe/frappe/app.py:
Site: site1.local
Form Dict: {
 "cmd": "erpnext.regional.india.utils.get_regional_address_details",
 "doctype": "Purchase Order",
 "party_details": "{\"shipping_address\":\"\",\"shipping_address_name\":\"\",\"customer_address\":\"\",\"supplier\":\"VIGNESH MARKETING\",\"supplier_gstin\":null,\"tax_category\":\"\"}",
 "return_taxes": "1"
}
Request Error
Traceback (most recent call last):
  File "/home/frappe/frappe-bench/apps/frappe/frappe/app.py", line 60, in application
    response = frappe.api.handle()
  File "/home/frappe/frappe-bench/apps/frappe/frappe/api.py", line 55, in handle
    return frappe.handler.handle()
  File "/home/frappe/frappe-bench/apps/frappe/frappe/handler.py", line 22, in handle
    data = execute_cmd(cmd)
  File "/home/frappe/frappe-bench/apps/frappe/frappe/handler.py", line 61, in execute_cmd
    return frappe.call(method, **frappe.form_dict)
  File "/home/frappe/frappe-bench/apps/frappe/frappe/__init__.py", line 1051, in call
    return fn(*args, **newargs)
TypeError: get_regional_address_details() missing 1 required positional argument: 'company'
[ERROR] 2020-07-17 12:50:44,925 | /home/frappe/frappe-bench/apps/frappe/frappe/app.py:
Site: site1.local
Request Error
Traceback (most recent call last):
  File "/home/frappe/frappe-bench/apps/frappe/frappe/app.py", line 52, in application
    init_request(request)
  File "/home/frappe/frappe-bench/apps/frappe/frappe/app.py", line 105, in init_request
    frappe.init(site=site, sites_path=_sites_path)
  File "/home/frappe/frappe-bench/apps/frappe/frappe/__init__.py", line 150, in init
    local.conf = _dict(get_site_config())
  File "/home/frappe/frappe-bench/apps/frappe/frappe/__init__.py", line 221, in get_site_config
    config.update(get_file_json(site_config))
  File "/home/frappe/frappe-bench/apps/frappe/frappe/__init__.py", line 1019, in get_file_json
    return json.load(f)
  File "/usr/lib/python3.6/json/__init__.py", line 299, in load
    parse_constant=parse_constant, object_pairs_hook=object_pairs_hook, **kw)
  File "/usr/lib/python3.6/json/__init__.py", line 354, in loads
    return _default_decoder.decode(s)
  File "/usr/lib/python3.6/json/decoder.py", line 339, in decode
    obj, end = self.raw_decode(s, idx=_w(s, 0).end())
  File "/usr/lib/python3.6/json/decoder.py", line 355, in raw_decode
    obj, end = self.scan_once(s, idx)
json.decoder.JSONDecodeError: Expecting property name enclosed in double quotes: line 6 column 1 (char 115)
[ERROR] 2020-07-17 12:51:47,052 | /home/frappe/frappe-bench/apps/frappe/frappe/app.py:
Site: site1.local
Request Error
Traceback (most recent call last):
  File "/home/frappe/frappe-bench/apps/frappe/frappe/app.py", line 52, in application
    init_request(request)
  File "/home/frappe/frappe-bench/apps/frappe/frappe/app.py", line 105, in init_request
    frappe.init(site=site, sites_path=_sites_path)
  File "/home/frappe/frappe-bench/apps/frappe/frappe/__init__.py", line 150, in init
    local.conf = _dict(get_site_config())
  File "/home/frappe/frappe-bench/apps/frappe/frappe/__init__.py", line 221, in get_site_config
    config.update(get_file_json(site_config))
  File "/home/frappe/frappe-bench/apps/frappe/frappe/__init__.py", line 1019, in get_file_json
    return json.load(f)
  File "/usr/lib/python3.6/json/__init__.py", line 299, in load
    parse_constant=parse_constant, object_pairs_hook=object_pairs_hook, **kw)
  File "/usr/lib/python3.6/json/__init__.py", line 354, in loads
    return _default_decoder.decode(s)
  File "/usr/lib/python3.6/json/decoder.py", line 339, in decode
    obj, end = self.raw_decode(s, idx=_w(s, 0).end())
  File "/usr/lib/python3.6/json/decoder.py", line 355, in raw_decode
    obj, end = self.scan_once(s, idx)
json.decoder.JSONDecodeError: Expecting property name enclosed in double quotes: line 6 column 1 (char 115)
[ERROR] 2020-07-17 12:51:49,074 | /home/frappe/frappe-bench/apps/frappe/frappe/app.py:
Site: site1.local
Request Error
Traceback (most recent call last):
  File "/home/frappe/frappe-bench/apps/frappe/frappe/app.py", line 52, in application
    init_request(request)
  File "/home/frappe/frappe-bench/apps/frappe/frappe/app.py", line 105, in init_request
    frappe.init(site=site, sites_path=_sites_path)
  File "/home/frappe/frappe-bench/apps/frappe/frappe/__init__.py", line 150, in init
    local.conf = _dict(get_site_config())
  File "/home/frappe/frappe-bench/apps/frappe/frappe/__init__.py", line 221, in get_site_config
    config.update(get_file_json(site_config))
  File "/home/frappe/frappe-bench/apps/frappe/frappe/__init__.py", line 1019, in get_file_json
    return json.load(f)
  File "/usr/lib/python3.6/json/__init__.py", line 299, in load
    parse_constant=parse_constant, object_pairs_hook=object_pairs_hook, **kw)
  File "/usr/lib/python3.6/json/__init__.py", line 354, in loads
    return _default_decoder.decode(s)
  File "/usr/lib/python3.6/json/decoder.py", line 339, in decode
    obj, end = self.raw_decode(s, idx=_w(s, 0).end())
  File "/usr/lib/python3.6/json/decoder.py", line 355, in raw_decode
    obj, end = self.scan_once(s, idx)
json.decoder.JSONDecodeError: Expecting property name enclosed in double quotes: line 6 column 1 (char 115)
[ERROR] 2020-07-17 12:51:51,023 | /home/frappe/frappe-bench/apps/frappe/frappe/app.py:
Site: site1.local
Request Error
Traceback (most recent call last):
  File "/home/frappe/frappe-bench/apps/frappe/frappe/app.py", line 52, in application
    init_request(request)
  File "/home/frappe/frappe-bench/apps/frappe/frappe/app.py", line 105, in init_request
    frappe.init(site=site, sites_path=_sites_path)
  File "/home/frappe/frappe-bench/apps/frappe/frappe/__init__.py", line 150, in init
    local.conf = _dict(get_site_config())
  File "/home/frappe/frappe-bench/apps/frappe/frappe/__init__.py", line 221, in get_site_config
    config.update(get_file_json(site_config))
  File "/home/frappe/frappe-bench/apps/frappe/frappe/__init__.py", line 1019, in get_file_json
    return json.load(f)
  File "/usr/lib/python3.6/json/__init__.py", line 299, in load
    parse_constant=parse_constant, object_pairs_hook=object_pairs_hook, **kw)
  File "/usr/lib/python3.6/json/__init__.py", line 354, in loads
    return _default_decoder.decode(s)
  File "/usr/lib/python3.6/json/decoder.py", line 339, in decode
    obj, end = self.raw_decode(s, idx=_w(s, 0).end())
  File "/usr/lib/python3.6/json/decoder.py", line 355, in raw_decode
    obj, end = self.scan_once(s, idx)
json.decoder.JSONDecodeError: Expecting property name enclosed in double quotes: line 6 column 1 (char 115)
[ERROR] 2020-07-17 14:37:47,333 | /home/frappe/frappe-bench/apps/frappe/frappe/app.py:
Site: site1.local
Request Error
Traceback (most recent call last):
  File "/home/frappe/frappe-bench/apps/frappe/frappe/app.py", line 52, in application
    init_request(request)
  File "/home/frappe/frappe-bench/apps/frappe/frappe/app.py", line 105, in init_request
    frappe.init(site=site, sites_path=_sites_path)
  File "/home/frappe/frappe-bench/apps/frappe/frappe/__init__.py", line 150, in init
    local.conf = _dict(get_site_config())
  File "/home/frappe/frappe-bench/apps/frappe/frappe/__init__.py", line 221, in get_site_config
    config.update(get_file_json(site_config))
  File "/home/frappe/frappe-bench/apps/frappe/frappe/__init__.py", line 1019, in get_file_json
    return json.load(f)
  File "/usr/lib/python3.6/json/__init__.py", line 299, in load
    parse_constant=parse_constant, object_pairs_hook=object_pairs_hook, **kw)
  File "/usr/lib/python3.6/json/__init__.py", line 354, in loads
    return _default_decoder.decode(s)
  File "/usr/lib/python3.6/json/decoder.py", line 339, in decode
    obj, end = self.raw_decode(s, idx=_w(s, 0).end())
  File "/usr/lib/python3.6/json/decoder.py", line 355, in raw_decode
    obj, end = self.scan_once(s, idx)
json.decoder.JSONDecodeError: Expecting property name enclosed in double quotes: line 6 column 1 (char 115)
[ERROR] 2020-07-17 14:42:11,548 | /home/frappe/frappe-bench/apps/frappe/frappe/app.py:
Site: site1.local
Request Error
Traceback (most recent call last):
  File "/home/frappe/frappe-bench/apps/frappe/frappe/app.py", line 52, in application
    init_request(request)
  File "/home/frappe/frappe-bench/apps/frappe/frappe/app.py", line 105, in init_request
    frappe.init(site=site, sites_path=_sites_path)
  File "/home/frappe/frappe-bench/apps/frappe/frappe/__init__.py", line 150, in init
    local.conf = _dict(get_site_config())
  File "/home/frappe/frappe-bench/apps/frappe/frappe/__init__.py", line 221, in get_site_config
    config.update(get_file_json(site_config))
  File "/home/frappe/frappe-bench/apps/frappe/frappe/__init__.py", line 1019, in get_file_json
    return json.load(f)
  File "/usr/lib/python3.6/json/__init__.py", line 299, in load
    parse_constant=parse_constant, object_pairs_hook=object_pairs_hook, **kw)
  File "/usr/lib/python3.6/json/__init__.py", line 354, in loads
    return _default_decoder.decode(s)
  File "/usr/lib/python3.6/json/decoder.py", line 339, in decode
    obj, end = self.raw_decode(s, idx=_w(s, 0).end())
  File "/usr/lib/python3.6/json/decoder.py", line 355, in raw_decode
    obj, end = self.scan_once(s, idx)
json.decoder.JSONDecodeError: Expecting property name enclosed in double quotes: line 6 column 1 (char 115)
[ERROR] 2020-07-17 14:42:11,698 | /home/frappe/frappe-bench/apps/frappe/frappe/app.py:
Site: site1.local
Request Error
Traceback (most recent call last):
  File "/home/frappe/frappe-bench/apps/frappe/frappe/app.py", line 52, in application
    init_request(request)
  File "/home/frappe/frappe-bench/apps/frappe/frappe/app.py", line 105, in init_request
    frappe.init(site=site, sites_path=_sites_path)
  File "/home/frappe/frappe-bench/apps/frappe/frappe/__init__.py", line 150, in init
    local.conf = _dict(get_site_config())
  File "/home/frappe/frappe-bench/apps/frappe/frappe/__init__.py", line 221, in get_site_config
    config.update(get_file_json(site_config))
  File "/home/frappe/frappe-bench/apps/frappe/frappe/__init__.py", line 1019, in get_file_json
    return json.load(f)
  File "/usr/lib/python3.6/json/__init__.py", line 299, in load
    parse_constant=parse_constant, object_pairs_hook=object_pairs_hook, **kw)
  File "/usr/lib/python3.6/json/__init__.py", line 354, in loads
    return _default_decoder.decode(s)
  File "/usr/lib/python3.6/json/decoder.py", line 339, in decode
    obj, end = self.raw_decode(s, idx=_w(s, 0).end())
  File "/usr/lib/python3.6/json/decoder.py", line 355, in raw_decode
    obj, end = self.scan_once(s, idx)
json.decoder.JSONDecodeError: Expecting property name enclosed in double quotes: line 6 column 1 (char 115)
[ERROR] 2020-07-17 17:19:12,927 | /home/frappe/frappe-bench/apps/frappe/frappe/app.py:
Site: site1.local
Request Error
Traceback (most recent call last):
  File "/home/frappe/frappe-bench/apps/frappe/frappe/app.py", line 52, in application
    init_request(request)
  File "/home/frappe/frappe-bench/apps/frappe/frappe/app.py", line 105, in init_request
    frappe.init(site=site, sites_path=_sites_path)
  File "/home/frappe/frappe-bench/apps/frappe/frappe/__init__.py", line 150, in init
    local.conf = _dict(get_site_config())
  File "/home/frappe/frappe-bench/apps/frappe/frappe/__init__.py", line 221, in get_site_config
    config.update(get_file_json(site_config))
  File "/home/frappe/frappe-bench/apps/frappe/frappe/__init__.py", line 1019, in get_file_json
    return json.load(f)
  File "/usr/lib/python3.6/json/__init__.py", line 299, in load
    parse_constant=parse_constant, object_pairs_hook=object_pairs_hook, **kw)
  File "/usr/lib/python3.6/json/__init__.py", line 354, in loads
    return _default_decoder.decode(s)
  File "/usr/lib/python3.6/json/decoder.py", line 339, in decode
    obj, end = self.raw_decode(s, idx=_w(s, 0).end())
  File "/usr/lib/python3.6/json/decoder.py", line 355, in raw_decode
    obj, end = self.scan_once(s, idx)
json.decoder.JSONDecodeError: Expecting property name enclosed in double quotes: line 6 column 1 (char 115)
[ERROR] 2020-07-17 18:51:28,025 | /home/frappe/frappe-bench/apps/frappe/frappe/app.py:
Site: site1.local
Request Error
Traceback (most recent call last):
  File "/home/frappe/frappe-bench/apps/frappe/frappe/app.py", line 52, in application
    init_request(request)
  File "/home/frappe/frappe-bench/apps/frappe/frappe/app.py", line 105, in init_request
    frappe.init(site=site, sites_path=_sites_path)
  File "/home/frappe/frappe-bench/apps/frappe/frappe/__init__.py", line 150, in init
    local.conf = _dict(get_site_config())
  File "/home/frappe/frappe-bench/apps/frappe/frappe/__init__.py", line 221, in get_site_config
    config.update(get_file_json(site_config))
  File "/home/frappe/frappe-bench/apps/frappe/frappe/__init__.py", line 1019, in get_file_json
    return json.load(f)
  File "/usr/lib/python3.6/json/__init__.py", line 299, in load
    parse_constant=parse_constant, object_pairs_hook=object_pairs_hook, **kw)
  File "/usr/lib/python3.6/json/__init__.py", line 354, in loads
    return _default_decoder.decode(s)
  File "/usr/lib/python3.6/json/decoder.py", line 339, in decode
    obj, end = self.raw_decode(s, idx=_w(s, 0).end())
  File "/usr/lib/python3.6/json/decoder.py", line 355, in raw_decode
    obj, end = self.scan_once(s, idx)
json.decoder.JSONDecodeError: Expecting property name enclosed in double quotes: line 6 column 1 (char 115)
[ERROR] 2020-07-18 01:38:35,541 | /home/frappe/frappe-bench/apps/frappe/frappe/app.py:
Site: site1.local
Request Error
Traceback (most recent call last):
  File "/home/frappe/frappe-bench/apps/frappe/frappe/app.py", line 52, in application
    init_request(request)
  File "/home/frappe/frappe-bench/apps/frappe/frappe/app.py", line 105, in init_request
    frappe.init(site=site, sites_path=_sites_path)
  File "/home/frappe/frappe-bench/apps/frappe/frappe/__init__.py", line 150, in init
    local.conf = _dict(get_site_config())
  File "/home/frappe/frappe-bench/apps/frappe/frappe/__init__.py", line 221, in get_site_config
    config.update(get_file_json(site_config))
  File "/home/frappe/frappe-bench/apps/frappe/frappe/__init__.py", line 1019, in get_file_json
    return json.load(f)
  File "/usr/lib/python3.6/json/__init__.py", line 299, in load
    parse_constant=parse_constant, object_pairs_hook=object_pairs_hook, **kw)
  File "/usr/lib/python3.6/json/__init__.py", line 354, in loads
    return _default_decoder.decode(s)
  File "/usr/lib/python3.6/json/decoder.py", line 339, in decode
    obj, end = self.raw_decode(s, idx=_w(s, 0).end())
  File "/usr/lib/python3.6/json/decoder.py", line 355, in raw_decode
    obj, end = self.scan_once(s, idx)
json.decoder.JSONDecodeError: Expecting property name enclosed in double quotes: line 6 column 1 (char 115)
