[
    "tabReport",
    "tabCustom",
    "tabError Log",
    "tabTag",
    "tabDefaultValue",
    "tabBank",
    "tabData",
    "tabHas",
    "tabBank Statement Settings",
    "tabData Migration Mapping Detail",
    "tabHas Role",
    "tabCustom Field",
    "tabDocPerm",
    "tabError",
    "tabDocType",
    "tabPage",
    "tabDocField",
    "tabData Migration Mapping",
    "tabTag Link"
]